{
    "frInfo": {
        "x": -202,
        "y": -152,
        "width": 404,
        "height": 304
    },
    "dirList": [
        "5"
    ],
    "type": 6,
    "actList": [
        0,
        1,
        2,
        3,
        4,
        5,
        6
    ],
    "frCounts": [
        1,
        0,
        0,
        0,
        0,
        0,
        0
    ]
}