{
    "frCounts": [
        1,
        0,
        0,
        0,
        0,
        0,
        0
    ],
    "dirList": [
        "5"
    ],
    "actList": [
        0,
        1,
        2,
        3,
        4,
        5,
        6
    ],
    "frInfo": {
        "x": -118,
        "y": -92,
        "width": 235,
        "height": 174
    },
    "type": 6
}