{
    "AMC_1": {
        "1": {
            "capacity": 20,
            "hitpoints": 400,
            "darkElixir": 0,
            "elixir": 250,
            "buildTime": 300,
            "townHallLevelRequired": 1,
            "width": 5,
            "height": 5
        },
        "2": {
            "capacity": 30,
            "hitpoints": 500,
            "darkElixir": 0,
            "elixir": 2500,
            "buildTime": 3600,
            "townHallLevelRequired": 2,
            "width": 5,
            "height": 5
        },
        "3": {
            "capacity": 35,
            "hitpoints": 600,
            "darkElixir": 0,
            "elixir": 10000,
            "buildTime": 10800,
            "townHallLevelRequired": 3,
            "width": 5,
            "height": 5
        },
        "4": {
            "capacity": 40,
            "hitpoints": 700,
            "darkElixir": 0,
            "elixir": 100000,
            "buildTime": 28800,
            "townHallLevelRequired": 4,
            "width": 5,
            "height": 5
        },
        "5": {
            "capacity": 45,
            "hitpoints": 800,
            "darkElixir": 0,
            "elixir": 250000,
            "buildTime": 86400,
            "townHallLevelRequired": 5,
            "width": 5,
            "height": 5
        },
        "6": {
            "capacity": 50,
            "hitpoints": 1000,
            "darkElixir": 0,
            "elixir": 750000,
            "buildTime": 259200,
            "townHallLevelRequired": 6,
            "width": 5,
            "height": 5
        },
        "7": {
            "capacity": 55,
            "hitpoints": 1200,
            "darkElixir": 25000,
            "elixir": 2250000,
            "buildTime": 432000,
            "townHallLevelRequired": 9,
            "width": 5,
            "height": 5
        },
        "8": {
            "capacity": 60,
            "hitpoints": 1400,
            "darkElixir": 100000,
            "elixir": 6750000,
            "buildTime": 864000,
            "townHallLevelRequired": 10,
            "width": 5,
            "height": 5
        }
    }
}