{
  "BuildingLevel" : [
    {
      "id": 101,
      "build_level": 1,
      "building_TypeID": 1,
      "name": "Trại lính",
      "exportName": "fireplace_lvl1",
      "BuildTimeD": 0,
      "BuildTimeH": 0,
      "BuildTimeM": 5,
      "BuildCost": 250,
      "TownHallLevel": 1,
      "MaxStoredGold": -1,
      "MaxStoredElixir": -1,
      "HousingSpace": 20,
      "ResourcePerHour": -1,
      "ResourceMax": -1,
      "UnitProduction": -1,
      "Hitpoints": 400,
      "RegenTime": 30,
      "Damage": -1,
      "Projectile": null,
      "DefenderCharacter": -1,
      "DefenderCount": -1,
      "DestructionXP": -1,
      "ExportNameTriggered": null
    },
    {
      "id": 102,
      "build_level": 2,
      "building_TypeID": 1,
      "name": "-1",
      "exportName": "fireplace_lvl2",
      "BuildTimeD": 0,
      "BuildTimeH": 1,
      "BuildTimeM": 0,
      "BuildCost": 2500,
      "TownHallLevel": 2,
      "MaxStoredGold": -1,
      "MaxStoredElixir": -1,
      "HousingSpace": 30,
      "ResourcePerHour": -1,
      "ResourceMax": -1,
      "UnitProduction": -1,
      "Hitpoints": 500,
      "RegenTime": 31,
      "Damage": -1,
      "Projectile": null,
      "DefenderCharacter": -1,
      "DefenderCount": -1,
      "DestructionXP": -1,
      "ExportNameTriggered": null
    },
    {
      "id": 103,
      "build_level": 3,
      "building_TypeID": 1,
      "name": "-1",
      "exportName": "fireplace_lvl3",
      "BuildTimeD": 0,
      "BuildTimeH": 3,
      "BuildTimeM": 0,
      "BuildCost": 10000,
      "TownHallLevel": 3,
      "MaxStoredGold": -1,
      "MaxStoredElixir": -1,
      "HousingSpace": 35,
      "ResourcePerHour": -1,
      "ResourceMax": -1,
      "UnitProduction": -1,
      "Hitpoints": 600,
      "RegenTime": 32,
      "Damage": -1,
      "Projectile": null,
      "DefenderCharacter": -1,
      "DefenderCount": -1,
      "DestructionXP": -1,
      "ExportNameTriggered": null
    },
    {
      "id": 104,
      "build_level": 4,
      "building_TypeID": 1,
      "name": "-1",
      "exportName": "fireplace_lvl4",
      "BuildTimeD": 0,
      "BuildTimeH": 8,
      "BuildTimeM": 0,
      "BuildCost": 100000,
      "TownHallLevel": 4,
      "MaxStoredGold": -1,
      "MaxStoredElixir": -1,
      "HousingSpace": 40,
      "ResourcePerHour": -1,
      "ResourceMax": -1,
      "UnitProduction": -1,
      "Hitpoints": 700,
      "RegenTime": 33,
      "Damage": -1,
      "Projectile": null,
      "DefenderCharacter": -1,
      "DefenderCount": -1,
      "DestructionXP": -1,
      "ExportNameTriggered": null
    },
    {
      "id": 105,
      "build_level": 5,
      "building_TypeID": 1,
      "name": "-1",
      "exportName": "fireplace_lvl5",
      "BuildTimeD": 1,
      "BuildTimeH": 0,
      "BuildTimeM": 0,
      "BuildCost": 250000,
      "TownHallLevel": 5,
      "MaxStoredGold": -1,
      "MaxStoredElixir": -1,
      "HousingSpace": 45,
      "ResourcePerHour": -1,
      "ResourceMax": -1,
      "UnitProduction": -1,
      "Hitpoints": 800,
      "RegenTime": 34,
      "Damage": -1,
      "Projectile": null,
      "DefenderCharacter": -1,
      "DefenderCount": -1,
      "DestructionXP": -1,
      "ExportNameTriggered": null
    },
    {
      "id": 106,
      "build_level": 6,
      "building_TypeID": 1,
      "name": "-1",
      "exportName": "fireplace_lvl6",
      "BuildTimeD": 3,
      "BuildTimeH": 0,
      "BuildTimeM": 0,
      "BuildCost": 750000,
      "TownHallLevel": 6,
      "MaxStoredGold": -1,
      "MaxStoredElixir": -1,
      "HousingSpace": 50,
      "ResourcePerHour": -1,
      "ResourceMax": -1,
      "UnitProduction": -1,
      "Hitpoints": 1000,
      "RegenTime": 35,
      "Damage": -1,
      "Projectile": null,
      "DefenderCharacter": -1,
      "DefenderCount": -1,
      "DestructionXP": -1,
      "ExportNameTriggered": null
    },
    {
      "id": 10001,
      "build_level": 1,
      "building_TypeID": 100,
      "name": "Nhà chính",
      "exportName": "town_hall_lvl1",
      "BuildTimeD": 0,
      "BuildTimeH": 0,
      "BuildTimeM": 1,
      "BuildCost": 0,
      "TownHallLevel": 0,
      "MaxStoredGold": 1000,
      "MaxStoredElixir": 1000,
      "HousingSpace": -1,
      "ResourcePerHour": -1,
      "ResourceMax": -1,
      "UnitProduction": -1,
      "Hitpoints": 1500,
      "RegenTime": 30,
      "Damage": -1,
      "Projectile": null,
      "DefenderCharacter": -1,
      "DefenderCount": -1,
      "DestructionXP": 1,
      "ExportNameTriggered": null
    },
    {
      "id": 10002,
      "build_level": 2,
      "building_TypeID": 100,
      "name": "-1",
      "exportName": "town_hall_lvl2",
      "BuildTimeD": 0,
      "BuildTimeH": 0,
      "BuildTimeM": 5,
      "BuildCost": 1000,
      "TownHallLevel": 0,
      "MaxStoredGold": 1000,
      "MaxStoredElixir": 1000,
      "HousingSpace": -1,
      "ResourcePerHour": -1,
      "ResourceMax": -1,
      "UnitProduction": -1,
      "Hitpoints": 1600,
      "RegenTime": 32,
      "Damage": -1,
      "Projectile": null,
      "DefenderCharacter": -1,
      "DefenderCount": -1,
      "DestructionXP": 2,
      "ExportNameTriggered": null
    },
    {
      "id": 10003,
      "build_level": 3,
      "building_TypeID": 100,
      "name": "-1",
      "exportName": "town_hall_lvl3",
      "BuildTimeD": 0,
      "BuildTimeH": 3,
      "BuildTimeM": 0,
      "BuildCost": 4000,
      "TownHallLevel": 0,
      "MaxStoredGold": 1000,
      "MaxStoredElixir": 1000,
      "HousingSpace": -1,
      "ResourcePerHour": -1,
      "ResourceMax": -1,
      "UnitProduction": -1,
      "Hitpoints": 1700,
      "RegenTime": 34,
      "Damage": -1,
      "Projectile": null,
      "DefenderCharacter": -1,
      "DefenderCount": -1,
      "DestructionXP": 3,
      "ExportNameTriggered": null
    },
    {
      "id": 10004,
      "build_level": 4,
      "building_TypeID": 100,
      "name": "-1",
      "exportName": "town_hall_lvl4",
      "BuildTimeD": 1,
      "BuildTimeH": 0,
      "BuildTimeM": 0,
      "BuildCost": 25000,
      "TownHallLevel": 0,
      "MaxStoredGold": 1000,
      "MaxStoredElixir": 1000,
      "HousingSpace": -1,
      "ResourcePerHour": -1,
      "ResourceMax": -1,
      "UnitProduction": -1,
      "Hitpoints": 1800,
      "RegenTime": 36,
      "Damage": -1,
      "Projectile": null,
      "DefenderCharacter": -1,
      "DefenderCount": -1,
      "DestructionXP": 4,
      "ExportNameTriggered": null
    },
    {
      "id": 10005,
      "build_level": 5,
      "building_TypeID": 100,
      "name": "-1",
      "exportName": "town_hall_lvl5",
      "BuildTimeD": 2,
      "BuildTimeH": 0,
      "BuildTimeM": 0,
      "BuildCost": 150000,
      "TownHallLevel": 0,
      "MaxStoredGold": 1000,
      "MaxStoredElixir": 1000,
      "HousingSpace": -1,
      "ResourcePerHour": -1,
      "ResourceMax": -1,
      "UnitProduction": -1,
      "Hitpoints": 1900,
      "RegenTime": 38,
      "Damage": -1,
      "Projectile": null,
      "DefenderCharacter": -1,
      "DefenderCount": -1,
      "DestructionXP": 5,
      "ExportNameTriggered": null
    },
    {
      "id": 10006,
      "build_level": 6,
      "building_TypeID": 100,
      "name": "-1",
      "exportName": "town_hall_lvl6",
      "BuildTimeD": 4,
      "BuildTimeH": 0,
      "BuildTimeM": 0,
      "BuildCost": 750000,
      "TownHallLevel": 0,
      "MaxStoredGold": 1000,
      "MaxStoredElixir": 1000,
      "HousingSpace": -1,
      "ResourcePerHour": -1,
      "ResourceMax": -1,
      "UnitProduction": -1,
      "Hitpoints": 2000,
      "RegenTime": 40,
      "Damage": -1,
      "Projectile": null,
      "DefenderCharacter": -1,
      "DefenderCount": -1,
      "DestructionXP": 6,
      "ExportNameTriggered": null
    },
    {
      "id": 10007,
      "build_level": 7,
      "building_TypeID": 100,
      "name": "-1",
      "exportName": "town_hall_lvl7",
      "BuildTimeD": 6,
      "BuildTimeH": 0,
      "BuildTimeM": 0,
      "BuildCost": 1200000,
      "TownHallLevel": 0,
      "MaxStoredGold": 1000,
      "MaxStoredElixir": 1000,
      "HousingSpace": -1,
      "ResourcePerHour": -1,
      "ResourceMax": -1,
      "UnitProduction": -1,
      "Hitpoints": 2200,
      "RegenTime": 42,
      "Damage": -1,
      "Projectile": null,
      "DefenderCharacter": -1,
      "DefenderCount": -1,
      "DestructionXP": 7,
      "ExportNameTriggered": null
    },
    {
      "id": 10008,
      "build_level": 8,
      "building_TypeID": 100,
      "name": "-1",
      "exportName": "town_hall_lvl8",
      "BuildTimeD": 8,
      "BuildTimeH": 0,
      "BuildTimeM": 0,
      "BuildCost": 1500000,
      "TownHallLevel": 0,
      "MaxStoredGold": 1000,
      "MaxStoredElixir": 1000,
      "HousingSpace": -1,
      "ResourcePerHour": -1,
      "ResourceMax": -1,
      "UnitProduction": -1,
      "Hitpoints": 2500,
      "RegenTime": 44,
      "Damage": -1,
      "Projectile": null,
      "DefenderCharacter": -1,
      "DefenderCount": -1,
      "DestructionXP": 8,
      "ExportNameTriggered": null
    },
    {
      "id": 20001,
      "build_level": 1,
      "building_TypeID": 200,
      "name": "Mỏ dầu",
      "exportName": "elixir_pump_lvl1",
      "BuildTimeD": 0,
      "BuildTimeH": 0,
      "BuildTimeM": 1,
      "BuildCost": 150,
      "TownHallLevel": 1,
      "MaxStoredGold": -1,
      "MaxStoredElixir": -1,
      "HousingSpace": -1,
      "ResourcePerHour": 200,
      "ResourceMax": 500,
      "UnitProduction": -1,
      "Hitpoints": 400,
      "RegenTime": 30,
      "Damage": -1,
      "Projectile": null,
      "DefenderCharacter": -1,
      "DefenderCount": -1,
      "DestructionXP": -1,
      "ExportNameTriggered": null
    },
    {
      "id": 20002,
      "build_level": 2,
      "building_TypeID": 200,
      "name": "-1",
      "exportName": "elixir_pump_lvl2",
      "BuildTimeD": 0,
      "BuildTimeH": 0,
      "BuildTimeM": 5,
      "BuildCost": 300,
      "TownHallLevel": 1,
      "MaxStoredGold": -1,
      "MaxStoredElixir": -1,
      "HousingSpace": -1,
      "ResourcePerHour": 400,
      "ResourceMax": 1000,
      "UnitProduction": -1,
      "Hitpoints": 450,
      "RegenTime": 31,
      "Damage": -1,
      "Projectile": null,
      "DefenderCharacter": -1,
      "DefenderCount": -1,
      "DestructionXP": -1,
      "ExportNameTriggered": null
    },
    {
      "id": 20003,
      "build_level": 3,
      "building_TypeID": 200,
      "name": "-1",
      "exportName": "elixir_pump_lvl3",
      "BuildTimeD": 0,
      "BuildTimeH": 0,
      "BuildTimeM": 0,
      "BuildCost": 700,
      "TownHallLevel": 2,
      "MaxStoredGold": -1,
      "MaxStoredElixir": -1,
      "HousingSpace": -1,
      "ResourcePerHour": 600,
      "ResourceMax": 1500,
      "UnitProduction": -1,
      "Hitpoints": 500,
      "RegenTime": 32,
      "Damage": -1,
      "Projectile": null,
      "DefenderCharacter": -1,
      "DefenderCount": -1,
      "DestructionXP": -1,
      "ExportNameTriggered": null
    },
    {
      "id": 20004,
      "build_level": 4,
      "building_TypeID": 200,
      "name": "-1",
      "exportName": "elixir_pump_lvl4",
      "BuildTimeD": 0,
      "BuildTimeH": 1,
      "BuildTimeM": 0,
      "BuildCost": 1400,
      "TownHallLevel": 2,
      "MaxStoredGold": -1,
      "MaxStoredElixir": -1,
      "HousingSpace": -1,
      "ResourcePerHour": 800,
      "ResourceMax": 2500,
      "UnitProduction": -1,
      "Hitpoints": 550,
      "RegenTime": 33,
      "Damage": -1,
      "Projectile": null,
      "DefenderCharacter": -1,
      "DefenderCount": -1,
      "DestructionXP": -1,
      "ExportNameTriggered": null
    },
    {
      "id": 20005,
      "build_level": 5,
      "building_TypeID": 200,
      "name": "-1",
      "exportName": "elixir_pump_lvl5",
      "BuildTimeD": 0,
      "BuildTimeH": 4,
      "BuildTimeM": 0,
      "BuildCost": 3500,
      "TownHallLevel": 3,
      "MaxStoredGold": -1,
      "MaxStoredElixir": -1,
      "HousingSpace": -1,
      "ResourcePerHour": 1000,
      "ResourceMax": 10000,
      "UnitProduction": -1,
      "Hitpoints": 590,
      "RegenTime": 34,
      "Damage": -1,
      "Projectile": null,
      "DefenderCharacter": -1,
      "DefenderCount": -1,
      "DestructionXP": -1,
      "ExportNameTriggered": null
    },
    {
      "id": 20006,
      "build_level": 6,
      "building_TypeID": 200,
      "name": "-1",
      "exportName": "elixir_pump_lvl6",
      "BuildTimeD": 0,
      "BuildTimeH": 12,
      "BuildTimeM": 0,
      "BuildCost": 7000,
      "TownHallLevel": 3,
      "MaxStoredGold": -1,
      "MaxStoredElixir": -1,
      "HousingSpace": -1,
      "ResourcePerHour": 1300,
      "ResourceMax": 20000,
      "UnitProduction": -1,
      "Hitpoints": 610,
      "RegenTime": 35,
      "Damage": -1,
      "Projectile": null,
      "DefenderCharacter": -1,
      "DefenderCount": -1,
      "DestructionXP": -1,
      "ExportNameTriggered": null
    },
    {
      "id": 20007,
      "build_level": 7,
      "building_TypeID": 200,
      "name": "-1",
      "exportName": "elixir_pump_lvl7",
      "BuildTimeD": 1,
      "BuildTimeH": 0,
      "BuildTimeM": 0,
      "BuildCost": 14000,
      "TownHallLevel": 4,
      "MaxStoredGold": -1,
      "MaxStoredElixir": -1,
      "HousingSpace": -1,
      "ResourcePerHour": 1600,
      "ResourceMax": 30000,
      "UnitProduction": -1,
      "Hitpoints": 630,
      "RegenTime": 36,
      "Damage": -1,
      "Projectile": null,
      "DefenderCharacter": -1,
      "DefenderCount": -1,
      "DestructionXP": -1,
      "ExportNameTriggered": null
    },
    {
      "id": 20008,
      "build_level": 8,
      "building_TypeID": 200,
      "name": "-1",
      "exportName": "elixir_pump_lvl8",
      "BuildTimeD": 2,
      "BuildTimeH": 0,
      "BuildTimeM": 0,
      "BuildCost": 28000,
      "TownHallLevel": 4,
      "MaxStoredGold": -1,
      "MaxStoredElixir": -1,
      "HousingSpace": -1,
      "ResourcePerHour": 1900,
      "ResourceMax": 50000,
      "UnitProduction": -1,
      "Hitpoints": 660,
      "RegenTime": 37,
      "Damage": -1,
      "Projectile": null,
      "DefenderCharacter": -1,
      "DefenderCount": -1,
      "DestructionXP": -1,
      "ExportNameTriggered": null
    },
    {
      "id": 20009,
      "build_level": 9,
      "building_TypeID": 200,
      "name": "-1",
      "exportName": "elixir_pump_lvl9",
      "BuildTimeD": 3,
      "BuildTimeH": 0,
      "BuildTimeM": 0,
      "BuildCost": 56000,
      "TownHallLevel": 5,
      "MaxStoredGold": -1,
      "MaxStoredElixir": -1,
      "HousingSpace": -1,
      "ResourcePerHour": 2200,
      "ResourceMax": 75000,
      "UnitProduction": -1,
      "Hitpoints": 680,
      "RegenTime": 38,
      "Damage": -1,
      "Projectile": null,
      "DefenderCharacter": -1,
      "DefenderCount": -1,
      "DestructionXP": -1,
      "ExportNameTriggered": null
    },
    {
      "id": 20010,
      "build_level": 10,
      "building_TypeID": 200,
      "name": "-1",
      "exportName": "elixir_pump_lvl10",
      "BuildTimeD": 4,
      "BuildTimeH": 0,
      "BuildTimeM": 0,
      "BuildCost": 84000,
      "TownHallLevel": 5,
      "MaxStoredGold": -1,
      "MaxStoredElixir": -1,
      "HousingSpace": -1,
      "ResourcePerHour": 2500,
      "ResourceMax": 100000,
      "UnitProduction": -1,
      "Hitpoints": 710,
      "RegenTime": 39,
      "Damage": -1,
      "Projectile": null,
      "DefenderCharacter": -1,
      "DefenderCount": -1,
      "DestructionXP": -1,
      "ExportNameTriggered": null
    },
    {
      "id": 20101,
      "build_level": 1,
      "building_TypeID": 201,
      "name": "Kho dầu",
      "exportName": "elixir_storage_level1",
      "BuildTimeD": 0,
      "BuildTimeH": 0,
      "BuildTimeM": 15,
      "BuildCost": 300,
      "TownHallLevel": 1,
      "MaxStoredGold": -1,
      "MaxStoredElixir": 1500,
      "HousingSpace": -1,
      "ResourcePerHour": -1,
      "ResourceMax": -1,
      "UnitProduction": -1,
      "Hitpoints": 400,
      "RegenTime": 30,
      "Damage": -1,
      "Projectile": null,
      "DefenderCharacter": -1,
      "DefenderCount": -1,
      "DestructionXP": -1,
      "ExportNameTriggered": null
    },
    {
      "id": 20102,
      "build_level": 2,
      "building_TypeID": 201,
      "name": "-1",
      "exportName": "elixir_storage_level2",
      "BuildTimeD": 0,
      "BuildTimeH": 0,
      "BuildTimeM": 30,
      "BuildCost": 750,
      "TownHallLevel": 2,
      "MaxStoredGold": -1,
      "MaxStoredElixir": 3000,
      "HousingSpace": -1,
      "ResourcePerHour": -1,
      "ResourceMax": -1,
      "UnitProduction": -1,
      "Hitpoints": 600,
      "RegenTime": 31,
      "Damage": -1,
      "Projectile": null,
      "DefenderCharacter": -1,
      "DefenderCount": -1,
      "DestructionXP": -1,
      "ExportNameTriggered": null
    },
    {
      "id": 20103,
      "build_level": 3,
      "building_TypeID": 201,
      "name": "-1",
      "exportName": "elixir_storage_level3",
      "BuildTimeD": 0,
      "BuildTimeH": 1,
      "BuildTimeM": 0,
      "BuildCost": 1500,
      "TownHallLevel": 2,
      "MaxStoredGold": -1,
      "MaxStoredElixir": 6000,
      "HousingSpace": -1,
      "ResourcePerHour": -1,
      "ResourceMax": -1,
      "UnitProduction": -1,
      "Hitpoints": 800,
      "RegenTime": 32,
      "Damage": -1,
      "Projectile": null,
      "DefenderCharacter": -1,
      "DefenderCount": -1,
      "DestructionXP": -1,
      "ExportNameTriggered": null
    },
    {
      "id": 20104,
      "build_level": 4,
      "building_TypeID": 201,
      "name": "-1",
      "exportName": "elixir_storage_level4",
      "BuildTimeD": 0,
      "BuildTimeH": 2,
      "BuildTimeM": 0,
      "BuildCost": 3000,
      "TownHallLevel": 3,
      "MaxStoredGold": -1,
      "MaxStoredElixir": 12000,
      "HousingSpace": -1,
      "ResourcePerHour": -1,
      "ResourceMax": -1,
      "UnitProduction": -1,
      "Hitpoints": 1000,
      "RegenTime": 33,
      "Damage": -1,
      "Projectile": null,
      "DefenderCharacter": -1,
      "DefenderCount": -1,
      "DestructionXP": -1,
      "ExportNameTriggered": null
    },
    {
      "id": 20105,
      "build_level": 5,
      "building_TypeID": 201,
      "name": "-1",
      "exportName": "elixir_storage_level5",
      "BuildTimeD": 0,
      "BuildTimeH": 3,
      "BuildTimeM": 0,
      "BuildCost": 6000,
      "TownHallLevel": 3,
      "MaxStoredGold": -1,
      "MaxStoredElixir": 25000,
      "HousingSpace": -1,
      "ResourcePerHour": -1,
      "ResourceMax": -1,
      "UnitProduction": -1,
      "Hitpoints": 1200,
      "RegenTime": 34,
      "Damage": -1,
      "Projectile": null,
      "DefenderCharacter": -1,
      "DefenderCount": -1,
      "DestructionXP": -1,
      "ExportNameTriggered": null
    },
    {
      "id": 20106,
      "build_level": 6,
      "building_TypeID": 201,
      "name": "-1",
      "exportName": "elixir_storage_level6",
      "BuildTimeD": 0,
      "BuildTimeH": 4,
      "BuildTimeM": 0,
      "BuildCost": 12000,
      "TownHallLevel": 3,
      "MaxStoredGold": -1,
      "MaxStoredElixir": 50000,
      "HousingSpace": -1,
      "ResourcePerHour": -1,
      "ResourceMax": -1,
      "UnitProduction": -1,
      "Hitpoints": 1500,
      "RegenTime": 35,
      "Damage": -1,
      "Projectile": null,
      "DefenderCharacter": -1,
      "DefenderCount": -1,
      "DestructionXP": -1,
      "ExportNameTriggered": null
    },
    {
      "id": 20107,
      "build_level": 7,
      "building_TypeID": 201,
      "name": "-1",
      "exportName": "elixir_storage_level7",
      "BuildTimeD": 0,
      "BuildTimeH": 6,
      "BuildTimeM": 0,
      "BuildCost": 25000,
      "TownHallLevel": 4,
      "MaxStoredGold": -1,
      "MaxStoredElixir": 100000,
      "HousingSpace": -1,
      "ResourcePerHour": -1,
      "ResourceMax": -1,
      "UnitProduction": -1,
      "Hitpoints": 1650,
      "RegenTime": 36,
      "Damage": -1,
      "Projectile": null,
      "DefenderCharacter": -1,
      "DefenderCount": -1,
      "DestructionXP": -1,
      "ExportNameTriggered": null
    },
    {
      "id": 20108,
      "build_level": 8,
      "building_TypeID": 201,
      "name": "-1",
      "exportName": "elixir_storage_level8",
      "BuildTimeD": 0,
      "BuildTimeH": 8,
      "BuildTimeM": 0,
      "BuildCost": 50000,
      "TownHallLevel": 4,
      "MaxStoredGold": -1,
      "MaxStoredElixir": 250000,
      "HousingSpace": -1,
      "ResourcePerHour": -1,
      "ResourceMax": -1,
      "UnitProduction": -1,
      "Hitpoints": 1740,
      "RegenTime": 37,
      "Damage": -1,
      "Projectile": null,
      "DefenderCharacter": -1,
      "DefenderCount": -1,
      "DestructionXP": -1,
      "ExportNameTriggered": null
    },
    {
      "id": 20109,
      "build_level": 9,
      "building_TypeID": 201,
      "name": "-1",
      "exportName": "elixir_storage_level9",
      "BuildTimeD": 0,
      "BuildTimeH": 12,
      "BuildTimeM": 0,
      "BuildCost": 100000,
      "TownHallLevel": 5,
      "MaxStoredGold": -1,
      "MaxStoredElixir": 500000,
      "HousingSpace": -1,
      "ResourcePerHour": -1,
      "ResourceMax": -1,
      "UnitProduction": -1,
      "Hitpoints": 1820,
      "RegenTime": 38,
      "Damage": -1,
      "Projectile": null,
      "DefenderCharacter": -1,
      "DefenderCount": -1,
      "DestructionXP": -1,
      "ExportNameTriggered": null
    },
    {
      "id": 20110,
      "build_level": 10,
      "building_TypeID": 201,
      "name": "-1",
      "exportName": "elixir_storage_level10",
      "BuildTimeD": 0,
      "BuildTimeH": 24,
      "BuildTimeM": 0,
      "BuildCost": 250000,
      "TownHallLevel": 6,
      "MaxStoredGold": -1,
      "MaxStoredElixir": 1000000,
      "HousingSpace": -1,
      "ResourcePerHour": -1,
      "ResourceMax": -1,
      "UnitProduction": -1,
      "Hitpoints": 1920,
      "RegenTime": 39,
      "Damage": -1,
      "Projectile": null,
      "DefenderCharacter": -1,
      "DefenderCount": -1,
      "DestructionXP": -1,
      "ExportNameTriggered": null
    },
    {
      "id": 20201,
      "build_level": 1,
      "building_TypeID": 202,
      "name": "Mỏ vàng",
      "exportName": "goldmine_lvl1",
      "BuildTimeD": 0,
      "BuildTimeH": 0,
      "BuildTimeM": 1,
      "BuildCost": 150,
      "TownHallLevel": 1,
      "MaxStoredGold": -1,
      "MaxStoredElixir": -1,
      "HousingSpace": -1,
      "ResourcePerHour": 200,
      "ResourceMax": 500,
      "UnitProduction": -1,
      "Hitpoints": 400,
      "RegenTime": 30,
      "Damage": -1,
      "Projectile": null,
      "DefenderCharacter": -1,
      "DefenderCount": -1,
      "DestructionXP": -1,
      "ExportNameTriggered": null
    },
    {
      "id": 20202,
      "build_level": 2,
      "building_TypeID": 202,
      "name": "-1",
      "exportName": "goldmine_lvl2",
      "BuildTimeD": 0,
      "BuildTimeH": 0,
      "BuildTimeM": 5,
      "BuildCost": 300,
      "TownHallLevel": 1,
      "MaxStoredGold": -1,
      "MaxStoredElixir": -1,
      "HousingSpace": -1,
      "ResourcePerHour": 400,
      "ResourceMax": 1000,
      "UnitProduction": -1,
      "Hitpoints": 450,
      "RegenTime": 31,
      "Damage": -1,
      "Projectile": null,
      "DefenderCharacter": -1,
      "DefenderCount": -1,
      "DestructionXP": -1,
      "ExportNameTriggered": null
    },
    {
      "id": 20203,
      "build_level": 3,
      "building_TypeID": 202,
      "name": "-1",
      "exportName": "goldmine_lvl3",
      "BuildTimeD": 0,
      "BuildTimeH": 0,
      "BuildTimeM": 15,
      "BuildCost": 700,
      "TownHallLevel": 2,
      "MaxStoredGold": -1,
      "MaxStoredElixir": -1,
      "HousingSpace": -1,
      "ResourcePerHour": 600,
      "ResourceMax": 1500,
      "UnitProduction": -1,
      "Hitpoints": 500,
      "RegenTime": 32,
      "Damage": -1,
      "Projectile": null,
      "DefenderCharacter": -1,
      "DefenderCount": -1,
      "DestructionXP": -1,
      "ExportNameTriggered": null
    },
    {
      "id": 20204,
      "build_level": 4,
      "building_TypeID": 202,
      "name": "-1",
      "exportName": "goldmine_lvl4",
      "BuildTimeD": 0,
      "BuildTimeH": 1,
      "BuildTimeM": 0,
      "BuildCost": 1400,
      "TownHallLevel": 2,
      "MaxStoredGold": -1,
      "MaxStoredElixir": -1,
      "HousingSpace": -1,
      "ResourcePerHour": 800,
      "ResourceMax": 2500,
      "UnitProduction": -1,
      "Hitpoints": 550,
      "RegenTime": 33,
      "Damage": -1,
      "Projectile": null,
      "DefenderCharacter": -1,
      "DefenderCount": -1,
      "DestructionXP": -1,
      "ExportNameTriggered": null
    },
    {
      "id": 20205,
      "build_level": 5,
      "building_TypeID": 202,
      "name": "-1",
      "exportName": "goldmine_lvl5",
      "BuildTimeD": 0,
      "BuildTimeH": 4,
      "BuildTimeM": 0,
      "BuildCost": 3000,
      "TownHallLevel": 3,
      "MaxStoredGold": -1,
      "MaxStoredElixir": -1,
      "HousingSpace": -1,
      "ResourcePerHour": 1000,
      "ResourceMax": 10000,
      "UnitProduction": -1,
      "Hitpoints": 590,
      "RegenTime": 34,
      "Damage": -1,
      "Projectile": null,
      "DefenderCharacter": -1,
      "DefenderCount": -1,
      "DestructionXP": -1,
      "ExportNameTriggered": null
    },
    {
      "id": 20206,
      "build_level": 6,
      "building_TypeID": 202,
      "name": "-1",
      "exportName": "goldmine_lvl6",
      "BuildTimeD": 0,
      "BuildTimeH": 12,
      "BuildTimeM": 0,
      "BuildCost": 7000,
      "TownHallLevel": 3,
      "MaxStoredGold": -1,
      "MaxStoredElixir": -1,
      "HousingSpace": -1,
      "ResourcePerHour": 1300,
      "ResourceMax": 20000,
      "UnitProduction": -1,
      "Hitpoints": 610,
      "RegenTime": 35,
      "Damage": -1,
      "Projectile": null,
      "DefenderCharacter": -1,
      "DefenderCount": -1,
      "DestructionXP": -1,
      "ExportNameTriggered": null
    },
    {
      "id": 20207,
      "build_level": 7,
      "building_TypeID": 202,
      "name": "-1",
      "exportName": "goldmine_lvl7",
      "BuildTimeD": 1,
      "BuildTimeH": 0,
      "BuildTimeM": 0,
      "BuildCost": 14000,
      "TownHallLevel": 4,
      "MaxStoredGold": -1,
      "MaxStoredElixir": -1,
      "HousingSpace": -1,
      "ResourcePerHour": 1600,
      "ResourceMax": 30000,
      "UnitProduction": -1,
      "Hitpoints": 630,
      "RegenTime": 36,
      "Damage": -1,
      "Projectile": null,
      "DefenderCharacter": -1,
      "DefenderCount": -1,
      "DestructionXP": -1,
      "ExportNameTriggered": null
    },
    {
      "id": 20208,
      "build_level": 8,
      "building_TypeID": 202,
      "name": "-1",
      "exportName": "goldmine_lvl8",
      "BuildTimeD": 2,
      "BuildTimeH": 0,
      "BuildTimeM": 0,
      "BuildCost": 28000,
      "TownHallLevel": 4,
      "MaxStoredGold": -1,
      "MaxStoredElixir": -1,
      "HousingSpace": -1,
      "ResourcePerHour": 1900,
      "ResourceMax": 50000,
      "UnitProduction": -1,
      "Hitpoints": 660,
      "RegenTime": 37,
      "Damage": -1,
      "Projectile": null,
      "DefenderCharacter": -1,
      "DefenderCount": -1,
      "DestructionXP": -1,
      "ExportNameTriggered": null
    },
    {
      "id": 20209,
      "build_level": 9,
      "building_TypeID": 202,
      "name": "-1",
      "exportName": "goldmine_lvl9",
      "BuildTimeD": 3,
      "BuildTimeH": 0,
      "BuildTimeM": 0,
      "BuildCost": 56000,
      "TownHallLevel": 5,
      "MaxStoredGold": -1,
      "MaxStoredElixir": -1,
      "HousingSpace": -1,
      "ResourcePerHour": 2200,
      "ResourceMax": 75000,
      "UnitProduction": -1,
      "Hitpoints": 680,
      "RegenTime": 38,
      "Damage": -1,
      "Projectile": null,
      "DefenderCharacter": -1,
      "DefenderCount": -1,
      "DestructionXP": -1,
      "ExportNameTriggered": null
    },
    {
      "id": 20210,
      "build_level": 10,
      "building_TypeID": 202,
      "name": "-1",
      "exportName": "goldmine_lvl10",
      "BuildTimeD": 4,
      "BuildTimeH": 0,
      "BuildTimeM": 0,
      "BuildCost": 84000,
      "TownHallLevel": 5,
      "MaxStoredGold": -1,
      "MaxStoredElixir": -1,
      "HousingSpace": -1,
      "ResourcePerHour": 2500,
      "ResourceMax": 100000,
      "UnitProduction": -1,
      "Hitpoints": 710,
      "RegenTime": 39,
      "Damage": -1,
      "Projectile": null,
      "DefenderCharacter": -1,
      "DefenderCount": -1,
      "DestructionXP": -1,
      "ExportNameTriggered": null
    },
    {
      "id": 20301,
      "build_level": 1,
      "building_TypeID": 203,
      "name": "Kho vàng",
      "exportName": "gold_storage_lvl1",
      "BuildTimeD": 0,
      "BuildTimeH": 0,
      "BuildTimeM": 15,
      "BuildCost": 300,
      "TownHallLevel": 1,
      "MaxStoredGold": 1500,
      "MaxStoredElixir": -1,
      "HousingSpace": -1,
      "ResourcePerHour": -1,
      "ResourceMax": -1,
      "UnitProduction": -1,
      "Hitpoints": 400,
      "RegenTime": 30,
      "Damage": -1,
      "Projectile": null,
      "DefenderCharacter": -1,
      "DefenderCount": -1,
      "DestructionXP": -1,
      "ExportNameTriggered": null
    },
    {
      "id": 20302,
      "build_level": 2,
      "building_TypeID": 203,
      "name": "-1",
      "exportName": "gold_storage_lvl2",
      "BuildTimeD": 0,
      "BuildTimeH": 0,
      "BuildTimeM": 30,
      "BuildCost": 750,
      "TownHallLevel": 2,
      "MaxStoredGold": 3000,
      "MaxStoredElixir": -1,
      "HousingSpace": -1,
      "ResourcePerHour": -1,
      "ResourceMax": -1,
      "UnitProduction": -1,
      "Hitpoints": 600,
      "RegenTime": 31,
      "Damage": -1,
      "Projectile": null,
      "DefenderCharacter": -1,
      "DefenderCount": -1,
      "DestructionXP": -1,
      "ExportNameTriggered": null
    },
    {
      "id": 20303,
      "build_level": 3,
      "building_TypeID": 203,
      "name": "-1",
      "exportName": "gold_storage_lvl3",
      "BuildTimeD": 0,
      "BuildTimeH": 1,
      "BuildTimeM": 0,
      "BuildCost": 1500,
      "TownHallLevel": 2,
      "MaxStoredGold": 6000,
      "MaxStoredElixir": -1,
      "HousingSpace": -1,
      "ResourcePerHour": -1,
      "ResourceMax": -1,
      "UnitProduction": -1,
      "Hitpoints": 800,
      "RegenTime": 32,
      "Damage": -1,
      "Projectile": null,
      "DefenderCharacter": -1,
      "DefenderCount": -1,
      "DestructionXP": -1,
      "ExportNameTriggered": null
    },
    {
      "id": 20304,
      "build_level": 4,
      "building_TypeID": 203,
      "name": "-1",
      "exportName": "gold_storage_lvl4",
      "BuildTimeD": 0,
      "BuildTimeH": 2,
      "BuildTimeM": 0,
      "BuildCost": 3000,
      "TownHallLevel": 3,
      "MaxStoredGold": 12000,
      "MaxStoredElixir": -1,
      "HousingSpace": -1,
      "ResourcePerHour": -1,
      "ResourceMax": -1,
      "UnitProduction": -1,
      "Hitpoints": 1000,
      "RegenTime": 33,
      "Damage": -1,
      "Projectile": null,
      "DefenderCharacter": -1,
      "DefenderCount": -1,
      "DestructionXP": -1,
      "ExportNameTriggered": null
    },
    {
      "id": 20305,
      "build_level": 5,
      "building_TypeID": 203,
      "name": "-1",
      "exportName": "gold_storage_lvl5",
      "BuildTimeD": 0,
      "BuildTimeH": 3,
      "BuildTimeM": 0,
      "BuildCost": 6000,
      "TownHallLevel": 3,
      "MaxStoredGold": 25000,
      "MaxStoredElixir": -1,
      "HousingSpace": -1,
      "ResourcePerHour": -1,
      "ResourceMax": -1,
      "UnitProduction": -1,
      "Hitpoints": 1200,
      "RegenTime": 34,
      "Damage": -1,
      "Projectile": null,
      "DefenderCharacter": -1,
      "DefenderCount": -1,
      "DestructionXP": -1,
      "ExportNameTriggered": null
    },
    {
      "id": 20306,
      "build_level": 6,
      "building_TypeID": 203,
      "name": "-1",
      "exportName": "gold_storage_lvl6",
      "BuildTimeD": 0,
      "BuildTimeH": 4,
      "BuildTimeM": 0,
      "BuildCost": 12000,
      "TownHallLevel": 3,
      "MaxStoredGold": 50000,
      "MaxStoredElixir": -1,
      "HousingSpace": -1,
      "ResourcePerHour": -1,
      "ResourceMax": -1,
      "UnitProduction": -1,
      "Hitpoints": 1500,
      "RegenTime": 35,
      "Damage": -1,
      "Projectile": null,
      "DefenderCharacter": -1,
      "DefenderCount": -1,
      "DestructionXP": -1,
      "ExportNameTriggered": null
    },
    {
      "id": 20307,
      "build_level": 7,
      "building_TypeID": 203,
      "name": "-1",
      "exportName": "gold_storage_lvl7",
      "BuildTimeD": 0,
      "BuildTimeH": 6,
      "BuildTimeM": 0,
      "BuildCost": 25000,
      "TownHallLevel": 4,
      "MaxStoredGold": 100000,
      "MaxStoredElixir": -1,
      "HousingSpace": -1,
      "ResourcePerHour": -1,
      "ResourceMax": -1,
      "UnitProduction": -1,
      "Hitpoints": 1650,
      "RegenTime": 36,
      "Damage": -1,
      "Projectile": null,
      "DefenderCharacter": -1,
      "DefenderCount": -1,
      "DestructionXP": -1,
      "ExportNameTriggered": null
    },
    {
      "id": 20308,
      "build_level": 8,
      "building_TypeID": 203,
      "name": "-1",
      "exportName": "gold_storage_lvl8",
      "BuildTimeD": 0,
      "BuildTimeH": 8,
      "BuildTimeM": 0,
      "BuildCost": 50000,
      "TownHallLevel": 4,
      "MaxStoredGold": 250000,
      "MaxStoredElixir": -1,
      "HousingSpace": -1,
      "ResourcePerHour": -1,
      "ResourceMax": -1,
      "UnitProduction": -1,
      "Hitpoints": 1740,
      "RegenTime": 37,
      "Damage": -1,
      "Projectile": null,
      "DefenderCharacter": -1,
      "DefenderCount": -1,
      "DestructionXP": -1,
      "ExportNameTriggered": null
    },
    {
      "id": 20309,
      "build_level": 9,
      "building_TypeID": 203,
      "name": "-1",
      "exportName": "gold_storage_lvl9",
      "BuildTimeD": 0,
      "BuildTimeH": 12,
      "BuildTimeM": 0,
      "BuildCost": 100000,
      "TownHallLevel": 5,
      "MaxStoredGold": 500000,
      "MaxStoredElixir": -1,
      "HousingSpace": -1,
      "ResourcePerHour": -1,
      "ResourceMax": -1,
      "UnitProduction": -1,
      "Hitpoints": 1820,
      "RegenTime": 38,
      "Damage": -1,
      "Projectile": null,
      "DefenderCharacter": -1,
      "DefenderCount": -1,
      "DestructionXP": -1,
      "ExportNameTriggered": null
    },
    {
      "id": 20310,
      "build_level": 10,
      "building_TypeID": 203,
      "name": "-1",
      "exportName": "gold_storage_lvl10",
      "BuildTimeD": 0,
      "BuildTimeH": 24,
      "BuildTimeM": 0,
      "BuildCost": 250000,
      "TownHallLevel": 6,
      "MaxStoredGold": 1000000,
      "MaxStoredElixir": -1,
      "HousingSpace": -1,
      "ResourcePerHour": -1,
      "ResourceMax": -1,
      "UnitProduction": -1,
      "Hitpoints": 1920,
      "RegenTime": 39,
      "Damage": -1,
      "Projectile": null,
      "DefenderCharacter": -1,
      "DefenderCount": -1,
      "DestructionXP": -1,
      "ExportNameTriggered": null
    },
    {
      "id": 201,
      "build_level": 1,
      "building_TypeID": 2,
      "name": "Nhà lính",
      "exportName": "barracks_lvl1",
      "BuildTimeD": 0,
      "BuildTimeH": 0,
      "BuildTimeM": 1,
      "BuildCost": 200,
      "TownHallLevel": 1,
      "MaxStoredGold": -1,
      "MaxStoredElixir": -1,
      "HousingSpace": -1,
      "ResourcePerHour": -1,
      "ResourceMax": -1,
      "UnitProduction": 20,
      "Hitpoints": 250,
      "RegenTime": 30,
      "Damage": -1,
      "Projectile": null,
      "DefenderCharacter": -1,
      "DefenderCount": -1,
      "DestructionXP": -1,
      "ExportNameTriggered": null
    },
    {
      "id": 202,
      "build_level": 2,
      "building_TypeID": 2,
      "name": "-1",
      "exportName": "barracks_lvl2",
      "BuildTimeD": 0,
      "BuildTimeH": 0,
      "BuildTimeM": 15,
      "BuildCost": 1000,
      "TownHallLevel": 1,
      "MaxStoredGold": -1,
      "MaxStoredElixir": -1,
      "HousingSpace": -1,
      "ResourcePerHour": -1,
      "ResourceMax": -1,
      "UnitProduction": 25,
      "Hitpoints": 270,
      "RegenTime": 31,
      "Damage": -1,
      "Projectile": null,
      "DefenderCharacter": -1,
      "DefenderCount": -1,
      "DestructionXP": -1,
      "ExportNameTriggered": null
    },
    {
      "id": 203,
      "build_level": 3,
      "building_TypeID": 2,
      "name": "-1",
      "exportName": "barracks_lvl3",
      "BuildTimeD": 0,
      "BuildTimeH": 2,
      "BuildTimeM": 0,
      "BuildCost": 2500,
      "TownHallLevel": 1,
      "MaxStoredGold": -1,
      "MaxStoredElixir": -1,
      "HousingSpace": -1,
      "ResourcePerHour": -1,
      "ResourceMax": -1,
      "UnitProduction": 30,
      "Hitpoints": 280,
      "RegenTime": 32,
      "Damage": -1,
      "Projectile": null,
      "DefenderCharacter": -1,
      "DefenderCount": -1,
      "DestructionXP": -1,
      "ExportNameTriggered": null
    },
    {
      "id": 204,
      "build_level": 4,
      "building_TypeID": 2,
      "name": "-1",
      "exportName": "barracks_lvl4",
      "BuildTimeD": 0,
      "BuildTimeH": 4,
      "BuildTimeM": 0,
      "BuildCost": 5000,
      "TownHallLevel": 2,
      "MaxStoredGold": -1,
      "MaxStoredElixir": -1,
      "HousingSpace": -1,
      "ResourcePerHour": -1,
      "ResourceMax": -1,
      "UnitProduction": 35,
      "Hitpoints": 290,
      "RegenTime": 33,
      "Damage": -1,
      "Projectile": null,
      "DefenderCharacter": -1,
      "DefenderCount": -1,
      "DestructionXP": -1,
      "ExportNameTriggered": null
    },
    {
      "id": 205,
      "build_level": 5,
      "building_TypeID": 2,
      "name": "-1",
      "exportName": "barracks_lvl5",
      "BuildTimeD": 0,
      "BuildTimeH": 10,
      "BuildTimeM": 0,
      "BuildCost": 10000,
      "TownHallLevel": 3,
      "MaxStoredGold": -1,
      "MaxStoredElixir": -1,
      "HousingSpace": -1,
      "ResourcePerHour": -1,
      "ResourceMax": -1,
      "UnitProduction": 40,
      "Hitpoints": 310,
      "RegenTime": 34,
      "Damage": -1,
      "Projectile": null,
      "DefenderCharacter": -1,
      "DefenderCount": -1,
      "DestructionXP": -1,
      "ExportNameTriggered": null
    },
    {
      "id": 206,
      "build_level": 6,
      "building_TypeID": 2,
      "name": "-1",
      "exportName": "barracks_lvl6",
      "BuildTimeD": 0,
      "BuildTimeH": 16,
      "BuildTimeM": 0,
      "BuildCost": 80000,
      "TownHallLevel": 4,
      "MaxStoredGold": -1,
      "MaxStoredElixir": -1,
      "HousingSpace": -1,
      "ResourcePerHour": -1,
      "ResourceMax": -1,
      "UnitProduction": 45,
      "Hitpoints": 320,
      "RegenTime": 35,
      "Damage": -1,
      "Projectile": null,
      "DefenderCharacter": -1,
      "DefenderCount": -1,
      "DestructionXP": -1,
      "ExportNameTriggered": null
    },
    {
      "id": 207,
      "build_level": 7,
      "building_TypeID": 2,
      "name": "-1",
      "exportName": "barracks_lvl7",
      "BuildTimeD": 1,
      "BuildTimeH": 0,
      "BuildTimeM": 0,
      "BuildCost": 240000,
      "TownHallLevel": 5,
      "MaxStoredGold": -1,
      "MaxStoredElixir": -1,
      "HousingSpace": -1,
      "ResourcePerHour": -1,
      "ResourceMax": -1,
      "UnitProduction": 50,
      "Hitpoints": 340,
      "RegenTime": 36,
      "Damage": -1,
      "Projectile": null,
      "DefenderCharacter": -1,
      "DefenderCount": -1,
      "DestructionXP": -1,
      "ExportNameTriggered": null
    },
    {
      "id": 208,
      "build_level": 8,
      "building_TypeID": 2,
      "name": "-1",
      "exportName": "barracks_lvl8",
      "BuildTimeD": 2,
      "BuildTimeH": 0,
      "BuildTimeM": 0,
      "BuildCost": 1000000,
      "TownHallLevel": 6,
      "MaxStoredGold": -1,
      "MaxStoredElixir": -1,
      "HousingSpace": -1,
      "ResourcePerHour": -1,
      "ResourceMax": -1,
      "UnitProduction": 55,
      "Hitpoints": 350,
      "RegenTime": 37,
      "Damage": -1,
      "Projectile": null,
      "DefenderCharacter": -1,
      "DefenderCount": -1,
      "DestructionXP": -1,
      "ExportNameTriggered": null
    },
    {
      "id": 209,
      "build_level": 9,
      "building_TypeID": 2,
      "name": "-1",
      "exportName": "barracks_lvl9",
      "BuildTimeD": 4,
      "BuildTimeH": 0,
      "BuildTimeM": 0,
      "BuildCost": 1500000,
      "TownHallLevel": 7,
      "MaxStoredGold": -1,
      "MaxStoredElixir": -1,
      "HousingSpace": -1,
      "ResourcePerHour": -1,
      "ResourceMax": -1,
      "UnitProduction": 60,
      "Hitpoints": 390,
      "RegenTime": 38,
      "Damage": -1,
      "Projectile": null,
      "DefenderCharacter": -1,
      "DefenderCount": -1,
      "DestructionXP": -1,
      "ExportNameTriggered": null
    },
    {
      "id": 210,
      "build_level": 10,
      "building_TypeID": 2,
      "name": "-1",
      "exportName": "barracks_lvl10",
      "BuildTimeD": 6,
      "BuildTimeH": 0,
      "BuildTimeM": 0,
      "BuildCost": 2000000,
      "TownHallLevel": 8,
      "MaxStoredGold": -1,
      "MaxStoredElixir": -1,
      "HousingSpace": -1,
      "ResourcePerHour": -1,
      "ResourceMax": -1,
      "UnitProduction": 75,
      "Hitpoints": 420,
      "RegenTime": 39,
      "Damage": -1,
      "Projectile": null,
      "DefenderCharacter": -1,
      "DefenderCount": -1,
      "DestructionXP": -1,
      "ExportNameTriggered": null
    },
    {
      "id": 301,
      "build_level": 1,
      "building_TypeID": 3,
      "name": "Nhà nghiên cứu",
      "exportName": "laboratory_lvl1",
      "BuildTimeD": 0,
      "BuildTimeH": 0,
      "BuildTimeM": 30,
      "BuildCost": 25000,
      "TownHallLevel": 3,
      "MaxStoredGold": -1,
      "MaxStoredElixir": -1,
      "HousingSpace": -1,
      "ResourcePerHour": -1,
      "ResourceMax": -1,
      "UnitProduction": -1,
      "Hitpoints": 250,
      "RegenTime": 30,
      "Damage": -1,
      "Projectile": null,
      "DefenderCharacter": -1,
      "DefenderCount": -1,
      "DestructionXP": -1,
      "ExportNameTriggered": null
    },
    {
      "id": 302,
      "build_level": 2,
      "building_TypeID": 3,
      "name": "-1",
      "exportName": "laboratory_lvl2",
      "BuildTimeD": 0,
      "BuildTimeH": 5,
      "BuildTimeM": 0,
      "BuildCost": 50000,
      "TownHallLevel": 4,
      "MaxStoredGold": -1,
      "MaxStoredElixir": -1,
      "HousingSpace": -1,
      "ResourcePerHour": -1,
      "ResourceMax": -1,
      "UnitProduction": -1,
      "Hitpoints": 270,
      "RegenTime": 32,
      "Damage": -1,
      "Projectile": null,
      "DefenderCharacter": -1,
      "DefenderCount": -1,
      "DestructionXP": -1,
      "ExportNameTriggered": null
    },
    {
      "id": 303,
      "build_level": 3,
      "building_TypeID": 3,
      "name": "-1",
      "exportName": "laboratory_lvl3",
      "BuildTimeD": 0,
      "BuildTimeH": 12,
      "BuildTimeM": 0,
      "BuildCost": 90000,
      "TownHallLevel": 5,
      "MaxStoredGold": -1,
      "MaxStoredElixir": -1,
      "HousingSpace": -1,
      "ResourcePerHour": -1,
      "ResourceMax": -1,
      "UnitProduction": -1,
      "Hitpoints": 280,
      "RegenTime": 34,
      "Damage": -1,
      "Projectile": null,
      "DefenderCharacter": -1,
      "DefenderCount": -1,
      "DestructionXP": -1,
      "ExportNameTriggered": null
    },
    {
      "id": 304,
      "build_level": 4,
      "building_TypeID": 3,
      "name": "-1",
      "exportName": "laboratory_lvl4",
      "BuildTimeD": 1,
      "BuildTimeH": 0,
      "BuildTimeM": 0,
      "BuildCost": 270000,
      "TownHallLevel": 6,
      "MaxStoredGold": -1,
      "MaxStoredElixir": -1,
      "HousingSpace": -1,
      "ResourcePerHour": -1,
      "ResourceMax": -1,
      "UnitProduction": -1,
      "Hitpoints": 290,
      "RegenTime": 36,
      "Damage": -1,
      "Projectile": null,
      "DefenderCharacter": -1,
      "DefenderCount": -1,
      "DestructionXP": -1,
      "ExportNameTriggered": null
    },
    {
      "id": 305,
      "build_level": 5,
      "building_TypeID": 3,
      "name": "-1",
      "exportName": "laboratory_lvl5",
      "BuildTimeD": 2,
      "BuildTimeH": 0,
      "BuildTimeM": 0,
      "BuildCost": 540000,
      "TownHallLevel": 7,
      "MaxStoredGold": -1,
      "MaxStoredElixir": -1,
      "HousingSpace": -1,
      "ResourcePerHour": -1,
      "ResourceMax": -1,
      "UnitProduction": -1,
      "Hitpoints": 310,
      "RegenTime": 38,
      "Damage": -1,
      "Projectile": null,
      "DefenderCharacter": -1,
      "DefenderCount": -1,
      "DestructionXP": -1,
      "ExportNameTriggered": null
    },
    {
      "id": 306,
      "build_level": 6,
      "building_TypeID": 3,
      "name": "-1",
      "exportName": "laboratory_lvl6",
      "BuildTimeD": 4,
      "BuildTimeH": 0,
      "BuildTimeM": 0,
      "BuildCost": 1080000,
      "TownHallLevel": 8,
      "MaxStoredGold": -1,
      "MaxStoredElixir": -1,
      "HousingSpace": -1,
      "ResourcePerHour": -1,
      "ResourceMax": -1,
      "UnitProduction": -1,
      "Hitpoints": 320,
      "RegenTime": 40,
      "Damage": -1,
      "Projectile": null,
      "DefenderCharacter": -1,
      "DefenderCount": -1,
      "DestructionXP": -1,
      "ExportNameTriggered": null
    },
    {
      "id": 30001,
      "build_level": 1,
      "building_TypeID": 300,
      "name": "Cannon",
      "exportName": "basic_turret_lvl1",
      "BuildTimeD": 0,
      "BuildTimeH": 0,
      "BuildTimeM": 1,
      "BuildCost": 250,
      "TownHallLevel": 1,
      "MaxStoredGold": -1,
      "MaxStoredElixir": -1,
      "HousingSpace": -1,
      "ResourcePerHour": -1,
      "ResourceMax": -1,
      "UnitProduction": -1,
      "Hitpoints": 400,
      "RegenTime": 30,
      "Damage": 9,
      "Projectile": "Cannonball",
      "DefenderCharacter": -1,
      "DefenderCount": -1,
      "DestructionXP": -1,
      "ExportNameTriggered": null
    },
    {
      "id": 30002,
      "build_level": 2,
      "building_TypeID": 300,
      "name": "-1",
      "exportName": "basic_turret_lvl2",
      "BuildTimeD": 0,
      "BuildTimeH": 0,
      "BuildTimeM": 15,
      "BuildCost": 1000,
      "TownHallLevel": 1,
      "MaxStoredGold": -1,
      "MaxStoredElixir": -1,
      "HousingSpace": -1,
      "ResourcePerHour": -1,
      "ResourceMax": -1,
      "UnitProduction": -1,
      "Hitpoints": 450,
      "RegenTime": 31,
      "Damage": 11,
      "Projectile": "Cannonball2",
      "DefenderCharacter": -1,
      "DefenderCount": -1,
      "DestructionXP": -1,
      "ExportNameTriggered": null
    },
    {
      "id": 30003,
      "build_level": 3,
      "building_TypeID": 300,
      "name": "-1",
      "exportName": "basic_turret_lvl3",
      "BuildTimeD": 0,
      "BuildTimeH": 0,
      "BuildTimeM": 45,
      "BuildCost": 4000,
      "TownHallLevel": 2,
      "MaxStoredGold": -1,
      "MaxStoredElixir": -1,
      "HousingSpace": -1,
      "ResourcePerHour": -1,
      "ResourceMax": -1,
      "UnitProduction": -1,
      "Hitpoints": 500,
      "RegenTime": 32,
      "Damage": 15,
      "Projectile": "Cannonball2",
      "DefenderCharacter": -1,
      "DefenderCount": -1,
      "DestructionXP": -1,
      "ExportNameTriggered": null
    },
    {
      "id": 30004,
      "build_level": 4,
      "building_TypeID": 300,
      "name": "-1",
      "exportName": "basic_turret_lvl4",
      "BuildTimeD": 0,
      "BuildTimeH": 2,
      "BuildTimeM": 0,
      "BuildCost": 16000,
      "TownHallLevel": 3,
      "MaxStoredGold": -1,
      "MaxStoredElixir": -1,
      "HousingSpace": -1,
      "ResourcePerHour": -1,
      "ResourceMax": -1,
      "UnitProduction": -1,
      "Hitpoints": 550,
      "RegenTime": 33,
      "Damage": 19,
      "Projectile": "Cannonball4",
      "DefenderCharacter": -1,
      "DefenderCount": -1,
      "DestructionXP": -1,
      "ExportNameTriggered": null
    },
    {
      "id": 30005,
      "build_level": 5,
      "building_TypeID": 300,
      "name": "-1",
      "exportName": "basic_turret_lvl5",
      "BuildTimeD": 0,
      "BuildTimeH": 6,
      "BuildTimeM": 0,
      "BuildCost": 64000,
      "TownHallLevel": 4,
      "MaxStoredGold": -1,
      "MaxStoredElixir": -1,
      "HousingSpace": -1,
      "ResourcePerHour": -1,
      "ResourceMax": -1,
      "UnitProduction": -1,
      "Hitpoints": 590,
      "RegenTime": 34,
      "Damage": 25,
      "Projectile": "Cannonball4",
      "DefenderCharacter": -1,
      "DefenderCount": -1,
      "DestructionXP": -1,
      "ExportNameTriggered": null
    },
    {
      "id": 30006,
      "build_level": 6,
      "building_TypeID": 300,
      "name": "-1",
      "exportName": "basic_turret_lvl6",
      "BuildTimeD": 0,
      "BuildTimeH": 12,
      "BuildTimeM": 0,
      "BuildCost": 150000,
      "TownHallLevel": 5,
      "MaxStoredGold": -1,
      "MaxStoredElixir": -1,
      "HousingSpace": -1,
      "ResourcePerHour": -1,
      "ResourceMax": -1,
      "UnitProduction": -1,
      "Hitpoints": 610,
      "RegenTime": 35,
      "Damage": 31,
      "Projectile": "Cannonball5",
      "DefenderCharacter": -1,
      "DefenderCount": -1,
      "DestructionXP": -1,
      "ExportNameTriggered": null
    },
    {
      "id": 30007,
      "build_level": 7,
      "building_TypeID": 300,
      "name": "-1",
      "exportName": "basic_turret_lvl7",
      "BuildTimeD": 1,
      "BuildTimeH": 0,
      "BuildTimeM": 0,
      "BuildCost": 300000,
      "TownHallLevel": 6,
      "MaxStoredGold": -1,
      "MaxStoredElixir": -1,
      "HousingSpace": -1,
      "ResourcePerHour": -1,
      "ResourceMax": -1,
      "UnitProduction": -1,
      "Hitpoints": 630,
      "RegenTime": 36,
      "Damage": 40,
      "Projectile": "Cannonball5",
      "DefenderCharacter": -1,
      "DefenderCount": -1,
      "DestructionXP": -1,
      "ExportNameTriggered": null
    },
    {
      "id": 30008,
      "build_level": 8,
      "building_TypeID": 300,
      "name": "-1",
      "exportName": "basic_turret_lvl8",
      "BuildTimeD": 2,
      "BuildTimeH": 0,
      "BuildTimeM": 0,
      "BuildCost": 600000,
      "TownHallLevel": 7,
      "MaxStoredGold": -1,
      "MaxStoredElixir": -1,
      "HousingSpace": -1,
      "ResourcePerHour": -1,
      "ResourceMax": -1,
      "UnitProduction": -1,
      "Hitpoints": 660,
      "RegenTime": 37,
      "Damage": 48,
      "Projectile": "Cannonball7",
      "DefenderCharacter": -1,
      "DefenderCount": -1,
      "DestructionXP": -1,
      "ExportNameTriggered": null
    },
    {
      "id": 30009,
      "build_level": 9,
      "building_TypeID": 300,
      "name": "-1",
      "exportName": "basic_turret_lvl9",
      "BuildTimeD": 3,
      "BuildTimeH": 0,
      "BuildTimeM": 0,
      "BuildCost": 1200000,
      "TownHallLevel": 8,
      "MaxStoredGold": -1,
      "MaxStoredElixir": -1,
      "HousingSpace": -1,
      "ResourcePerHour": -1,
      "ResourceMax": -1,
      "UnitProduction": -1,
      "Hitpoints": 690,
      "RegenTime": 38,
      "Damage": 56,
      "Projectile": "Cannonball7",
      "DefenderCharacter": -1,
      "DefenderCount": -1,
      "DestructionXP": -1,
      "ExportNameTriggered": null
    },
    {
      "id": 30010,
      "build_level": 10,
      "building_TypeID": 300,
      "name": "-1",
      "exportName": "basic_turret_lvl10",
      "BuildTimeD": 5,
      "BuildTimeH": 0,
      "BuildTimeM": 0,
      "BuildCost": 2400000,
      "TownHallLevel": 8,
      "MaxStoredGold": -1,
      "MaxStoredElixir": -1,
      "HousingSpace": -1,
      "ResourcePerHour": -1,
      "ResourceMax": -1,
      "UnitProduction": -1,
      "Hitpoints": 710,
      "RegenTime": 39,
      "Damage": 65,
      "Projectile": "Cannonball10",
      "DefenderCharacter": -1,
      "DefenderCount": -1,
      "DestructionXP": -1,
      "ExportNameTriggered": null
    },
    {
      "id": 30101,
      "build_level": 1,
      "building_TypeID": 301,
      "name": "Archer Tower",
      "exportName": "tower_turret_lvl1",
      "BuildTimeD": 0,
      "BuildTimeH": 0,
      "BuildTimeM": 15,
      "BuildCost": 1000,
      "TownHallLevel": 2,
      "MaxStoredGold": -1,
      "MaxStoredElixir": -1,
      "HousingSpace": -1,
      "ResourcePerHour": -1,
      "ResourceMax": -1,
      "UnitProduction": -1,
      "Hitpoints": 400,
      "RegenTime": 30,
      "Damage": 11,
      "Projectile": "Tower Arrow",
      "DefenderCharacter": 6,
      "DefenderCount": 1,
      "DestructionXP": -1,
      "ExportNameTriggered": null
    },
    {
      "id": 30102,
      "build_level": 2,
      "building_TypeID": 301,
      "name": "-1",
      "exportName": "tower_turret_lvl2",
      "BuildTimeD": 0,
      "BuildTimeH": 0,
      "BuildTimeM": 30,
      "BuildCost": 2000,
      "TownHallLevel": 2,
      "MaxStoredGold": -1,
      "MaxStoredElixir": -1,
      "HousingSpace": -1,
      "ResourcePerHour": -1,
      "ResourceMax": -1,
      "UnitProduction": -1,
      "Hitpoints": 450,
      "RegenTime": 31,
      "Damage": 15,
      "Projectile": "Tower Arrow",
      "DefenderCharacter": 6,
      "DefenderCount": 2,
      "DestructionXP": -1,
      "ExportNameTriggered": null
    },
    {
      "id": 30103,
      "build_level": 3,
      "building_TypeID": 301,
      "name": "-1",
      "exportName": "tower_turret_lvl3",
      "BuildTimeD": 0,
      "BuildTimeH": 0,
      "BuildTimeM": 45,
      "BuildCost": 5000,
      "TownHallLevel": 3,
      "MaxStoredGold": -1,
      "MaxStoredElixir": -1,
      "HousingSpace": -1,
      "ResourcePerHour": -1,
      "ResourceMax": -1,
      "UnitProduction": -1,
      "Hitpoints": 500,
      "RegenTime": 32,
      "Damage": 19,
      "Projectile": "Tower Arrow",
      "DefenderCharacter": 6,
      "DefenderCount": 3,
      "DestructionXP": -1,
      "ExportNameTriggered": null
    },
    {
      "id": 30104,
      "build_level": 4,
      "building_TypeID": 301,
      "name": "-1",
      "exportName": "tower_turret_lvl4",
      "BuildTimeD": 0,
      "BuildTimeH": 4,
      "BuildTimeM": 0,
      "BuildCost": 20000,
      "TownHallLevel": 4,
      "MaxStoredGold": -1,
      "MaxStoredElixir": -1,
      "HousingSpace": -1,
      "ResourcePerHour": -1,
      "ResourceMax": -1,
      "UnitProduction": -1,
      "Hitpoints": 550,
      "RegenTime": 33,
      "Damage": 25,
      "Projectile": "Tower Arrow Fire",
      "DefenderCharacter": 8,
      "DefenderCount": 1,
      "DestructionXP": -1,
      "ExportNameTriggered": null
    },
    {
      "id": 30105,
      "build_level": 5,
      "building_TypeID": 301,
      "name": "-1",
      "exportName": "tower_turret_lvl5",
      "BuildTimeD": 0,
      "BuildTimeH": 12,
      "BuildTimeM": 0,
      "BuildCost": 80000,
      "TownHallLevel": 5,
      "MaxStoredGold": -1,
      "MaxStoredElixir": -1,
      "HousingSpace": -1,
      "ResourcePerHour": -1,
      "ResourceMax": -1,
      "UnitProduction": -1,
      "Hitpoints": 590,
      "RegenTime": 34,
      "Damage": 30,
      "Projectile": "Tower Arrow Fire",
      "DefenderCharacter": 8,
      "DefenderCount": 2,
      "DestructionXP": -1,
      "ExportNameTriggered": null
    },
    {
      "id": 30106,
      "build_level": 6,
      "building_TypeID": 301,
      "name": "-1",
      "exportName": "tower_turret_lvl6",
      "BuildTimeD": 1,
      "BuildTimeH": 0,
      "BuildTimeM": 0,
      "BuildCost": 180000,
      "TownHallLevel": 5,
      "MaxStoredGold": -1,
      "MaxStoredElixir": -1,
      "HousingSpace": -1,
      "ResourcePerHour": -1,
      "ResourceMax": -1,
      "UnitProduction": -1,
      "Hitpoints": 610,
      "RegenTime": 35,
      "Damage": 35,
      "Projectile": "Tower Arrow Fire",
      "DefenderCharacter": 8,
      "DefenderCount": 3,
      "DestructionXP": -1,
      "ExportNameTriggered": null
    },
    {
      "id": 30107,
      "build_level": 7,
      "building_TypeID": 301,
      "name": "-1",
      "exportName": "tower_turret_lvl7",
      "BuildTimeD": 3,
      "BuildTimeH": 0,
      "BuildTimeM": 0,
      "BuildCost": 360000,
      "TownHallLevel": 6,
      "MaxStoredGold": -1,
      "MaxStoredElixir": -1,
      "HousingSpace": -1,
      "ResourcePerHour": -1,
      "ResourceMax": -1,
      "UnitProduction": -1,
      "Hitpoints": 630,
      "RegenTime": 36,
      "Damage": 42,
      "Projectile": "Tower Arrow ElixFire",
      "DefenderCharacter": 10,
      "DefenderCount": 1,
      "DestructionXP": -1,
      "ExportNameTriggered": null
    },
    {
      "id": 30108,
      "build_level": 8,
      "building_TypeID": 301,
      "name": "-1",
      "exportName": "tower_turret_lvl8",
      "BuildTimeD": 4,
      "BuildTimeH": 0,
      "BuildTimeM": 0,
      "BuildCost": 720000,
      "TownHallLevel": 7,
      "MaxStoredGold": -1,
      "MaxStoredElixir": -1,
      "HousingSpace": -1,
      "ResourcePerHour": -1,
      "ResourceMax": -1,
      "UnitProduction": -1,
      "Hitpoints": 660,
      "RegenTime": 37,
      "Damage": 48,
      "Projectile": "Tower Arrow ElixFire",
      "DefenderCharacter": 10,
      "DefenderCount": 2,
      "DestructionXP": -1,
      "ExportNameTriggered": null
    },
    {
      "id": 30109,
      "build_level": 9,
      "building_TypeID": 301,
      "name": "-1",
      "exportName": "tower_turret_lvl9",
      "BuildTimeD": 5,
      "BuildTimeH": 0,
      "BuildTimeM": 0,
      "BuildCost": 1500000,
      "TownHallLevel": 8,
      "MaxStoredGold": -1,
      "MaxStoredElixir": -1,
      "HousingSpace": -1,
      "ResourcePerHour": -1,
      "ResourceMax": -1,
      "UnitProduction": -1,
      "Hitpoints": 690,
      "RegenTime": 38,
      "Damage": 56,
      "Projectile": "Tower Arrow ElixFire",
      "DefenderCharacter": 10,
      "DefenderCount": 3,
      "DestructionXP": -1,
      "ExportNameTriggered": null
    },
    {
      "id": 30110,
      "build_level": 10,
      "building_TypeID": 301,
      "name": "-1",
      "exportName": "tower_turret_lvl10",
      "BuildTimeD": 6,
      "BuildTimeH": 0,
      "BuildTimeM": 0,
      "BuildCost": 2500000,
      "TownHallLevel": 8,
      "MaxStoredGold": -1,
      "MaxStoredElixir": -1,
      "HousingSpace": -1,
      "ResourcePerHour": -1,
      "ResourceMax": -1,
      "UnitProduction": -1,
      "Hitpoints": 710,
      "RegenTime": 39,
      "Damage": 65,
      "Projectile": "Tower Arrow ElixFire",
      "DefenderCharacter": 10,
      "DefenderCount": 1,
      "DestructionXP": -1,
      "ExportNameTriggered": null
    },
    {
      "id": 40001,
      "build_level": 1,
      "building_TypeID": 400,
      "name": "Wall",
      "exportName": "defense_wall_lvl1",
      "BuildTimeD": 0,
      "BuildTimeH": 0,
      "BuildTimeM": 0,
      "BuildCost": 200,
      "TownHallLevel": 2,
      "MaxStoredGold": -1,
      "MaxStoredElixir": -1,
      "HousingSpace": -1,
      "ResourcePerHour": -1,
      "ResourceMax": -1,
      "UnitProduction": -1,
      "Hitpoints": 300,
      "RegenTime": 30,
      "Damage": -1,
      "Projectile": null,
      "DefenderCharacter": -1,
      "DefenderCount": -1,
      "DestructionXP": -1,
      "ExportNameTriggered": null
    },
    {
      "id": 40002,
      "build_level": 2,
      "building_TypeID": 400,
      "name": "-1",
      "exportName": "defense_wall_lvl2",
      "BuildTimeD": 0,
      "BuildTimeH": 0,
      "BuildTimeM": 0,
      "BuildCost": 1000,
      "TownHallLevel": 2,
      "MaxStoredGold": -1,
      "MaxStoredElixir": -1,
      "HousingSpace": -1,
      "ResourcePerHour": -1,
      "ResourceMax": -1,
      "UnitProduction": -1,
      "Hitpoints": 500,
      "RegenTime": 31,
      "Damage": -1,
      "Projectile": null,
      "DefenderCharacter": -1,
      "DefenderCount": -1,
      "DestructionXP": -1,
      "ExportNameTriggered": null
    },
    {
      "id": 40003,
      "build_level": 3,
      "building_TypeID": 400,
      "name": "-1",
      "exportName": "defense_wall_lvl3",
      "BuildTimeD": 0,
      "BuildTimeH": 0,
      "BuildTimeM": 0,
      "BuildCost": 5000,
      "TownHallLevel": 3,
      "MaxStoredGold": -1,
      "MaxStoredElixir": -1,
      "HousingSpace": -1,
      "ResourcePerHour": -1,
      "ResourceMax": -1,
      "UnitProduction": -1,
      "Hitpoints": 700,
      "RegenTime": 32,
      "Damage": -1,
      "Projectile": null,
      "DefenderCharacter": -1,
      "DefenderCount": -1,
      "DestructionXP": -1,
      "ExportNameTriggered": null
    },
    {
      "id": 40004,
      "build_level": 4,
      "building_TypeID": 400,
      "name": "-1",
      "exportName": "defense_wall_lvl4",
      "BuildTimeD": 0,
      "BuildTimeH": 0,
      "BuildTimeM": 0,
      "BuildCost": 10000,
      "TownHallLevel": 4,
      "MaxStoredGold": -1,
      "MaxStoredElixir": -1,
      "HousingSpace": -1,
      "ResourcePerHour": -1,
      "ResourceMax": -1,
      "UnitProduction": -1,
      "Hitpoints": 900,
      "RegenTime": 33,
      "Damage": -1,
      "Projectile": null,
      "DefenderCharacter": -1,
      "DefenderCount": -1,
      "DestructionXP": -1,
      "ExportNameTriggered": null
    },
    {
      "id": 40005,
      "build_level": 5,
      "building_TypeID": 400,
      "name": "-1",
      "exportName": "defense_wall_lvl5",
      "BuildTimeD": 0,
      "BuildTimeH": 0,
      "BuildTimeM": 0,
      "BuildCost": 30000,
      "TownHallLevel": 5,
      "MaxStoredGold": -1,
      "MaxStoredElixir": -1,
      "HousingSpace": -1,
      "ResourcePerHour": -1,
      "ResourceMax": -1,
      "UnitProduction": -1,
      "Hitpoints": 1400,
      "RegenTime": 34,
      "Damage": -1,
      "Projectile": null,
      "DefenderCharacter": -1,
      "DefenderCount": -1,
      "DestructionXP": -1,
      "ExportNameTriggered": null
    },
    {
      "id": 40006,
      "build_level": 6,
      "building_TypeID": 400,
      "name": "-1",
      "exportName": "defense_wall_lvl6",
      "BuildTimeD": 0,
      "BuildTimeH": 0,
      "BuildTimeM": 0,
      "BuildCost": 75000,
      "TownHallLevel": 6,
      "MaxStoredGold": -1,
      "MaxStoredElixir": -1,
      "HousingSpace": -1,
      "ResourcePerHour": -1,
      "ResourceMax": -1,
      "UnitProduction": -1,
      "Hitpoints": 2000,
      "RegenTime": 35,
      "Damage": -1,
      "Projectile": null,
      "DefenderCharacter": -1,
      "DefenderCount": -1,
      "DestructionXP": -1,
      "ExportNameTriggered": null
    },
    {
      "id": 40007,
      "build_level": 7,
      "building_TypeID": 400,
      "name": "-1",
      "exportName": "defense_wall_lvl7",
      "BuildTimeD": 0,
      "BuildTimeH": 0,
      "BuildTimeM": 0,
      "BuildCost": 200000,
      "TownHallLevel": 7,
      "MaxStoredGold": -1,
      "MaxStoredElixir": -1,
      "HousingSpace": -1,
      "ResourcePerHour": -1,
      "ResourceMax": -1,
      "UnitProduction": -1,
      "Hitpoints": 2500,
      "RegenTime": 36,
      "Damage": -1,
      "Projectile": null,
      "DefenderCharacter": -1,
      "DefenderCount": -1,
      "DestructionXP": -1,
      "ExportNameTriggered": null
    },
    {
      "id": 40008,
      "build_level": 8,
      "building_TypeID": 400,
      "name": "-1",
      "exportName": "defense_wall_lvl8",
      "BuildTimeD": 0,
      "BuildTimeH": 0,
      "BuildTimeM": 0,
      "BuildCost": 500000,
      "TownHallLevel": 8,
      "MaxStoredGold": -1,
      "MaxStoredElixir": -1,
      "HousingSpace": -1,
      "ResourcePerHour": -1,
      "ResourceMax": -1,
      "UnitProduction": -1,
      "Hitpoints": 3000,
      "RegenTime": 37,
      "Damage": -1,
      "Projectile": null,
      "DefenderCharacter": -1,
      "DefenderCount": -1,
      "DestructionXP": -1,
      "ExportNameTriggered": null
    },
    {
      "id": 30201,
      "build_level": 1,
      "building_TypeID": 302,
      "name": "Wizard Tower",
      "exportName": "wizard_tower_lvl1",
      "BuildTimeD": 0,
      "BuildTimeH": 12,
      "BuildTimeM": 0,
      "BuildCost": 180000,
      "TownHallLevel": 5,
      "MaxStoredGold": -1,
      "MaxStoredElixir": -1,
      "HousingSpace": -1,
      "ResourcePerHour": -1,
      "ResourceMax": -1,
      "UnitProduction": -1,
      "Hitpoints": 620,
      "RegenTime": 30,
      "Damage": 11,
      "Projectile": "Wizard Blast",
      "DefenderCharacter": 31,
      "DefenderCount": 1,
      "DestructionXP": -1,
      "ExportNameTriggered": null
    },
    {
      "id": 30202,
      "build_level": 2,
      "building_TypeID": 302,
      "name": "-1",
      "exportName": "wizard_tower_lvl4",
      "BuildTimeD": 1,
      "BuildTimeH": 0,
      "BuildTimeM": 0,
      "BuildCost": 360000,
      "TownHallLevel": 5,
      "MaxStoredGold": -1,
      "MaxStoredElixir": -1,
      "HousingSpace": -1,
      "ResourcePerHour": -1,
      "ResourceMax": -1,
      "UnitProduction": -1,
      "Hitpoints": 660,
      "RegenTime": 32,
      "Damage": 13,
      "Projectile": null,
      "DefenderCharacter": -1,
      "DefenderCount": -1,
      "DestructionXP": -1,
      "ExportNameTriggered": null
    },
    {
      "id": 30203,
      "build_level": 3,
      "building_TypeID": 302,
      "name": "-1",
      "exportName": "wizard_tower_lvl7",
      "BuildTimeD": 2,
      "BuildTimeH": 0,
      "BuildTimeM": 0,
      "BuildCost": 720000,
      "TownHallLevel": 6,
      "MaxStoredGold": -1,
      "MaxStoredElixir": -1,
      "HousingSpace": -1,
      "ResourcePerHour": -1,
      "ResourceMax": -1,
      "UnitProduction": -1,
      "Hitpoints": 690,
      "RegenTime": 34,
      "Damage": 16,
      "Projectile": null,
      "DefenderCharacter": -1,
      "DefenderCount": -1,
      "DestructionXP": -1,
      "ExportNameTriggered": null
    },
    {
      "id": 30204,
      "build_level": 4,
      "building_TypeID": 302,
      "name": "-1",
      "exportName": "wizard_tower_lvl8",
      "BuildTimeD": 4,
      "BuildTimeH": 0,
      "BuildTimeM": 0,
      "BuildCost": 1280000,
      "TownHallLevel": 7,
      "MaxStoredGold": -1,
      "MaxStoredElixir": -1,
      "HousingSpace": -1,
      "ResourcePerHour": -1,
      "ResourceMax": -1,
      "UnitProduction": -1,
      "Hitpoints": 720,
      "RegenTime": 36,
      "Damage": 20,
      "Projectile": null,
      "DefenderCharacter": -1,
      "DefenderCount": -1,
      "DestructionXP": -1,
      "ExportNameTriggered": null
    },
    {
      "id": 30205,
      "build_level": 5,
      "building_TypeID": 302,
      "name": "-1",
      "exportName": "wizard_tower_lvl9",
      "BuildTimeD": 6,
      "BuildTimeH": 0,
      "BuildTimeM": 0,
      "BuildCost": 1960000,
      "TownHallLevel": 8,
      "MaxStoredGold": -1,
      "MaxStoredElixir": -1,
      "HousingSpace": -1,
      "ResourcePerHour": -1,
      "ResourceMax": -1,
      "UnitProduction": -1,
      "Hitpoints": 760,
      "RegenTime": 38,
      "Damage": 24,
      "Projectile": null,
      "DefenderCharacter": -1,
      "DefenderCount": -1,
      "DestructionXP": -1,
      "ExportNameTriggered": null
    },
    {
      "id": 30206,
      "build_level": 6,
      "building_TypeID": 302,
      "name": "-1",
      "exportName": "wizard_tower_lvl10",
      "BuildTimeD": 8,
      "BuildTimeH": 0,
      "BuildTimeM": 0,
      "BuildCost": 2680000,
      "TownHallLevel": 8,
      "MaxStoredGold": -1,
      "MaxStoredElixir": -1,
      "HousingSpace": -1,
      "ResourcePerHour": -1,
      "ResourceMax": -1,
      "UnitProduction": -1,
      "Hitpoints": 800,
      "RegenTime": 40,
      "Damage": 32,
      "Projectile": null,
      "DefenderCharacter": -1,
      "DefenderCount": -1,
      "DestructionXP": -1,
      "ExportNameTriggered": null
    },
    {
      "id": 30301,
      "build_level": 1,
      "building_TypeID": 303,
      "name": "Air Defense",
      "exportName": "fireworks_tower_lvl1",
      "BuildTimeD": 0,
      "BuildTimeH": 5,
      "BuildTimeM": 0,
      "BuildCost": 22500,
      "TownHallLevel": 4,
      "MaxStoredGold": -1,
      "MaxStoredElixir": -1,
      "HousingSpace": -1,
      "ResourcePerHour": -1,
      "ResourceMax": -1,
      "UnitProduction": -1,
      "Hitpoints": 800,
      "RegenTime": 30,
      "Damage": 80,
      "Projectile": "Firework",
      "DefenderCharacter": -1,
      "DefenderCount": -1,
      "DestructionXP": -1,
      "ExportNameTriggered": null
    },
    {
      "id": 30302,
      "build_level": 2,
      "building_TypeID": 303,
      "name": "-1",
      "exportName": "fireworks_tower_lvl2",
      "BuildTimeD": 1,
      "BuildTimeH": 0,
      "BuildTimeM": 0,
      "BuildCost": 90000,
      "TownHallLevel": 4,
      "MaxStoredGold": -1,
      "MaxStoredElixir": -1,
      "HousingSpace": -1,
      "ResourcePerHour": -1,
      "ResourceMax": -1,
      "UnitProduction": -1,
      "Hitpoints": 860,
      "RegenTime": 32,
      "Damage": 110,
      "Projectile": "Firework2",
      "DefenderCharacter": -1,
      "DefenderCount": -1,
      "DestructionXP": -1,
      "ExportNameTriggered": null
    },
    {
      "id": 30303,
      "build_level": 3,
      "building_TypeID": 303,
      "name": "-1",
      "exportName": "fireworks_tower_lvl3",
      "BuildTimeD": 3,
      "BuildTimeH": 0,
      "BuildTimeM": 0,
      "BuildCost": 270000,
      "TownHallLevel": 5,
      "MaxStoredGold": -1,
      "MaxStoredElixir": -1,
      "HousingSpace": -1,
      "ResourcePerHour": -1,
      "ResourceMax": -1,
      "UnitProduction": -1,
      "Hitpoints": 900,
      "RegenTime": 34,
      "Damage": 140,
      "Projectile": "Firework3",
      "DefenderCharacter": -1,
      "DefenderCount": -1,
      "DestructionXP": -1,
      "ExportNameTriggered": null
    },
    {
      "id": 30304,
      "build_level": 4,
      "building_TypeID": 303,
      "name": "-1",
      "exportName": "fireworks_tower_lvl4",
      "BuildTimeD": 5,
      "BuildTimeH": 0,
      "BuildTimeM": 0,
      "BuildCost": 540000,
      "TownHallLevel": 6,
      "MaxStoredGold": -1,
      "MaxStoredElixir": -1,
      "HousingSpace": -1,
      "ResourcePerHour": -1,
      "ResourceMax": -1,
      "UnitProduction": -1,
      "Hitpoints": 940,
      "RegenTime": 36,
      "Damage": 160,
      "Projectile": "Firework4",
      "DefenderCharacter": -1,
      "DefenderCount": -1,
      "DestructionXP": -1,
      "ExportNameTriggered": null
    },
    {
      "id": 30305,
      "build_level": 5,
      "building_TypeID": 303,
      "name": "-1",
      "exportName": "fireworks_tower_lvl5",
      "BuildTimeD": 7,
      "BuildTimeH": 0,
      "BuildTimeM": 0,
      "BuildCost": 1080000,
      "TownHallLevel": 7,
      "MaxStoredGold": -1,
      "MaxStoredElixir": -1,
      "HousingSpace": -1,
      "ResourcePerHour": -1,
      "ResourceMax": -1,
      "UnitProduction": -1,
      "Hitpoints": 990,
      "RegenTime": 38,
      "Damage": 190,
      "Projectile": "Firework5",
      "DefenderCharacter": -1,
      "DefenderCount": -1,
      "DestructionXP": -1,
      "ExportNameTriggered": null
    },
    {
      "id": 30306,
      "build_level": 6,
      "building_TypeID": 303,
      "name": "-1",
      "exportName": "fireworks_tower_lvl6",
      "BuildTimeD": 8,
      "BuildTimeH": 0,
      "BuildTimeM": 0,
      "BuildCost": 2160000,
      "TownHallLevel": 8,
      "MaxStoredGold": -1,
      "MaxStoredElixir": -1,
      "HousingSpace": -1,
      "ResourcePerHour": -1,
      "ResourceMax": -1,
      "UnitProduction": -1,
      "Hitpoints": 1040,
      "RegenTime": 40,
      "Damage": 230,
      "Projectile": "Firework6",
      "DefenderCharacter": -1,
      "DefenderCount": -1,
      "DestructionXP": -1,
      "ExportNameTriggered": null
    },
    {
      "id": 30401,
      "build_level": 1,
      "building_TypeID": 304,
      "name": "Mortar",
      "exportName": "mortar_lvl1",
      "BuildTimeD": 0,
      "BuildTimeH": 8,
      "BuildTimeM": 0,
      "BuildCost": 8000,
      "TownHallLevel": 3,
      "MaxStoredGold": -1,
      "MaxStoredElixir": -1,
      "HousingSpace": -1,
      "ResourcePerHour": -1,
      "ResourceMax": -1,
      "UnitProduction": -1,
      "Hitpoints": 400,
      "RegenTime": 30,
      "Damage": 4,
      "Projectile": "Mortar Ammo1",
      "DefenderCharacter": -1,
      "DefenderCount": -1,
      "DestructionXP": -1,
      "ExportNameTriggered": null
    },
    {
      "id": 30402,
      "build_level": 2,
      "building_TypeID": 304,
      "name": "-1",
      "exportName": "mortar_lvl2",
      "BuildTimeD": 0,
      "BuildTimeH": 12,
      "BuildTimeM": 0,
      "BuildCost": 32000,
      "TownHallLevel": 4,
      "MaxStoredGold": -1,
      "MaxStoredElixir": -1,
      "HousingSpace": -1,
      "ResourcePerHour": -1,
      "ResourceMax": -1,
      "UnitProduction": -1,
      "Hitpoints": 450,
      "RegenTime": 32,
      "Damage": 5,
      "Projectile": "Mortar Ammo2",
      "DefenderCharacter": -1,
      "DefenderCount": -1,
      "DestructionXP": -1,
      "ExportNameTriggered": null
    },
    {
      "id": 30403,
      "build_level": 3,
      "building_TypeID": 304,
      "name": "-1",
      "exportName": "mortar_lvl3",
      "BuildTimeD": 1,
      "BuildTimeH": 0,
      "BuildTimeM": 0,
      "BuildCost": 128000,
      "TownHallLevel": 5,
      "MaxStoredGold": -1,
      "MaxStoredElixir": -1,
      "HousingSpace": -1,
      "ResourcePerHour": -1,
      "ResourceMax": -1,
      "UnitProduction": -1,
      "Hitpoints": 500,
      "RegenTime": 34,
      "Damage": 6,
      "Projectile": "Mortar Ammo3",
      "DefenderCharacter": -1,
      "DefenderCount": -1,
      "DestructionXP": -1,
      "ExportNameTriggered": null
    },
    {
      "id": 30404,
      "build_level": 4,
      "building_TypeID": 304,
      "name": "-1",
      "exportName": "mortar_lvl4",
      "BuildTimeD": 2,
      "BuildTimeH": 0,
      "BuildTimeM": 0,
      "BuildCost": 512000,
      "TownHallLevel": 6,
      "MaxStoredGold": -1,
      "MaxStoredElixir": -1,
      "HousingSpace": -1,
      "ResourcePerHour": -1,
      "ResourceMax": -1,
      "UnitProduction": -1,
      "Hitpoints": 550,
      "RegenTime": 36,
      "Damage": 7,
      "Projectile": "Mortar Ammo4",
      "DefenderCharacter": -1,
      "DefenderCount": -1,
      "DestructionXP": -1,
      "ExportNameTriggered": null
    },
    {
      "id": 30405,
      "build_level": 5,
      "building_TypeID": 304,
      "name": "-1",
      "exportName": "mortar_lvl5",
      "BuildTimeD": 4,
      "BuildTimeH": 0,
      "BuildTimeM": 0,
      "BuildCost": 1024000,
      "TownHallLevel": 7,
      "MaxStoredGold": -1,
      "MaxStoredElixir": -1,
      "HousingSpace": -1,
      "ResourcePerHour": -1,
      "ResourceMax": -1,
      "UnitProduction": -1,
      "Hitpoints": 590,
      "RegenTime": 38,
      "Damage": 8,
      "Projectile": "Mortar Ammo5",
      "DefenderCharacter": -1,
      "DefenderCount": -1,
      "DestructionXP": -1,
      "ExportNameTriggered": null
    },
    {
      "id": 30406,
      "build_level": 6,
      "building_TypeID": 304,
      "name": "-1",
      "exportName": "mortar_lvl6",
      "BuildTimeD": 6,
      "BuildTimeH": 0,
      "BuildTimeM": 0,
      "BuildCost": 2048000,
      "TownHallLevel": 8,
      "MaxStoredGold": -1,
      "MaxStoredElixir": -1,
      "HousingSpace": -1,
      "ResourcePerHour": -1,
      "ResourceMax": -1,
      "UnitProduction": -1,
      "Hitpoints": 610,
      "RegenTime": 40,
      "Damage": 9,
      "Projectile": "Mortar Ammo6",
      "DefenderCharacter": -1,
      "DefenderCount": -1,
      "DestructionXP": -1,
      "ExportNameTriggered": null
    },
    {
      "id": 401,
      "build_level": 1,
      "building_TypeID": 4,
      "name": "Alliance Castle",
      "exportName": "alliance_castle_lvl1",
      "BuildTimeD": 0,
      "BuildTimeH": 0,
      "BuildTimeM": 0,
      "BuildCost": 40000,
      "TownHallLevel": 3,
      "MaxStoredGold": -1,
      "MaxStoredElixir": -1,
      "HousingSpace": 10,
      "ResourcePerHour": -1,
      "ResourceMax": -1,
      "UnitProduction": -1,
      "Hitpoints": 500,
      "RegenTime": 30,
      "Damage": -1,
      "Projectile": null,
      "DefenderCharacter": -1,
      "DefenderCount": -1,
      "DestructionXP": -1,
      "ExportNameTriggered": null
    },
    {
      "id": 402,
      "build_level": 2,
      "building_TypeID": 4,
      "name": "-1",
      "exportName": "alliance_castle_lvl2",
      "BuildTimeD": 0,
      "BuildTimeH": 6,
      "BuildTimeM": 0,
      "BuildCost": 100000,
      "TownHallLevel": 4,
      "MaxStoredGold": -1,
      "MaxStoredElixir": -1,
      "HousingSpace": 15,
      "ResourcePerHour": -1,
      "ResourceMax": -1,
      "UnitProduction": -1,
      "Hitpoints": 520,
      "RegenTime": 32,
      "Damage": -1,
      "Projectile": null,
      "DefenderCharacter": -1,
      "DefenderCount": -1,
      "DestructionXP": -1,
      "ExportNameTriggered": null
    },
    {
      "id": 403,
      "build_level": 3,
      "building_TypeID": 4,
      "name": "-1",
      "exportName": "alliance_castle_lvl3",
      "BuildTimeD": 1,
      "BuildTimeH": 0,
      "BuildTimeM": 0,
      "BuildCost": 800000,
      "TownHallLevel": 6,
      "MaxStoredGold": -1,
      "MaxStoredElixir": -1,
      "HousingSpace": 20,
      "ResourcePerHour": -1,
      "ResourceMax": -1,
      "UnitProduction": -1,
      "Hitpoints": 550,
      "RegenTime": 34,
      "Damage": -1,
      "Projectile": null,
      "DefenderCharacter": -1,
      "DefenderCount": -1,
      "DestructionXP": -1,
      "ExportNameTriggered": null
    },
    {
      "id": 404,
      "build_level": 4,
      "building_TypeID": 4,
      "name": "-1",
      "exportName": "alliance_castle_lvl4",
      "BuildTimeD": 2,
      "BuildTimeH": 0,
      "BuildTimeM": 0,
      "BuildCost": 1800000,
      "TownHallLevel": 8,
      "MaxStoredGold": -1,
      "MaxStoredElixir": -1,
      "HousingSpace": 25,
      "ResourcePerHour": -1,
      "ResourceMax": -1,
      "UnitProduction": -1,
      "Hitpoints": 580,
      "RegenTime": 36,
      "Damage": -1,
      "Projectile": null,
      "DefenderCharacter": -1,
      "DefenderCount": -1,
      "DestructionXP": -1,
      "ExportNameTriggered": null
    },
    {
      "id": 30501,
      "build_level": 1,
      "building_TypeID": 305,
      "name": "Tesla Tower",
      "exportName": "teslatower_lvl1_setup",
      "BuildTimeD": 2,
      "BuildTimeH": 0,
      "BuildTimeM": 0,
      "BuildCost": 1000000,
      "TownHallLevel": 7,
      "MaxStoredGold": -1,
      "MaxStoredElixir": -1,
      "HousingSpace": -1,
      "ResourcePerHour": -1,
      "ResourceMax": -1,
      "UnitProduction": -1,
      "Hitpoints": 600,
      "RegenTime": 34,
      "Damage": 34,
      "Projectile": null,
      "DefenderCharacter": -1,
      "DefenderCount": -1,
      "DestructionXP": -1,
      "ExportNameTriggered": "teslatower_lvl1"
    },
    {
      "id": 30502,
      "build_level": 2,
      "building_TypeID": 305,
      "name": "-1",
      "exportName": "teslatower_lvl2_setup",
      "BuildTimeD": 4,
      "BuildTimeH": 0,
      "BuildTimeM": 0,
      "BuildCost": 1250000,
      "TownHallLevel": 7,
      "MaxStoredGold": -1,
      "MaxStoredElixir": -1,
      "HousingSpace": -1,
      "ResourcePerHour": -1,
      "ResourceMax": -1,
      "UnitProduction": -1,
      "Hitpoints": 630,
      "RegenTime": 35,
      "Damage": 40,
      "Projectile": null,
      "DefenderCharacter": -1,
      "DefenderCount": -1,
      "DestructionXP": -1,
      "ExportNameTriggered": "teslatower_lvl2"
    },
    {
      "id": 30503,
      "build_level": 3,
      "building_TypeID": 305,
      "name": "-1",
      "exportName": "teslatower_lvl3_setup",
      "BuildTimeD": 6,
      "BuildTimeH": 0,
      "BuildTimeM": 0,
      "BuildCost": 1500000,
      "TownHallLevel": 7,
      "MaxStoredGold": -1,
      "MaxStoredElixir": -1,
      "HousingSpace": -1,
      "ResourcePerHour": -1,
      "ResourceMax": -1,
      "UnitProduction": -1,
      "Hitpoints": 660,
      "RegenTime": 36,
      "Damage": 48,
      "Projectile": null,
      "DefenderCharacter": -1,
      "DefenderCount": -1,
      "DestructionXP": -1,
      "ExportNameTriggered": "teslatower_lvl3"
    },
    {
      "id": 30504,
      "build_level": 4,
      "building_TypeID": 305,
      "name": "-1",
      "exportName": "teslatower_lvl4_setup",
      "BuildTimeD": 8,
      "BuildTimeH": 0,
      "BuildTimeM": 0,
      "BuildCost": 2000000,
      "TownHallLevel": 8,
      "MaxStoredGold": -1,
      "MaxStoredElixir": -1,
      "HousingSpace": -1,
      "ResourcePerHour": -1,
      "ResourceMax": -1,
      "UnitProduction": -1,
      "Hitpoints": 690,
      "RegenTime": 37,
      "Damage": 55,
      "Projectile": null,
      "DefenderCharacter": -1,
      "DefenderCount": -1,
      "DestructionXP": -1,
      "ExportNameTriggered": "teslatower_lvl4"
    },
    {
      "id": 30505,
      "build_level": 5,
      "building_TypeID": 305,
      "name": "-1",
      "exportName": "teslatower_lvl5_setup",
      "BuildTimeD": 10,
      "BuildTimeH": 0,
      "BuildTimeM": 0,
      "BuildCost": 2500000,
      "TownHallLevel": 8,
      "MaxStoredGold": -1,
      "MaxStoredElixir": -1,
      "HousingSpace": -1,
      "ResourcePerHour": -1,
      "ResourceMax": -1,
      "UnitProduction": -1,
      "Hitpoints": 730,
      "RegenTime": 38,
      "Damage": 64,
      "Projectile": null,
      "DefenderCharacter": -1,
      "DefenderCount": -1,
      "DestructionXP": -1,
      "ExportNameTriggered": "teslatower_lvl5"
    },
    {
      "id": 30506,
      "build_level": 6,
      "building_TypeID": 305,
      "name": "-1",
      "exportName": "teslatower_lvl6_setup",
      "BuildTimeD": 12,
      "BuildTimeH": 0,
      "BuildTimeM": 0,
      "BuildCost": 3000000,
      "TownHallLevel": 8,
      "MaxStoredGold": -1,
      "MaxStoredElixir": -1,
      "HousingSpace": -1,
      "ResourcePerHour": -1,
      "ResourceMax": -1,
      "UnitProduction": -1,
      "Hitpoints": 770,
      "RegenTime": 39,
      "Damage": 75,
      "Projectile": null,
      "DefenderCharacter": -1,
      "DefenderCount": -1,
      "DestructionXP": -1,
      "ExportNameTriggered": "teslatower_lvl6"
    },
    {
      "id": 501,
      "build_level": 1,
      "building_TypeID": 5,
      "name": "Spell Forge",
      "exportName": "spell_factory_lvl1",
      "BuildTimeD": 1,
      "BuildTimeH": 0,
      "BuildTimeM": 0,
      "BuildCost": 200000,
      "TownHallLevel": 5,
      "MaxStoredGold": -1,
      "MaxStoredElixir": -1,
      "HousingSpace": 1,
      "ResourcePerHour": -1,
      "ResourceMax": -1,
      "UnitProduction": 1,
      "Hitpoints": 200,
      "RegenTime": 30,
      "Damage": -1,
      "Projectile": null,
      "DefenderCharacter": -1,
      "DefenderCount": -1,
      "DestructionXP": -1,
      "ExportNameTriggered": null
    },
    {
      "id": 502,
      "build_level": 2,
      "building_TypeID": 5,
      "name": "-1",
      "exportName": "spell_factory_lvl2",
      "BuildTimeD": 2,
      "BuildTimeH": 0,
      "BuildTimeM": 0,
      "BuildCost": 400000,
      "TownHallLevel": 6,
      "MaxStoredGold": -1,
      "MaxStoredElixir": -1,
      "HousingSpace": 2,
      "ResourcePerHour": -1,
      "ResourceMax": -1,
      "UnitProduction": 2,
      "Hitpoints": 400,
      "RegenTime": 31,
      "Damage": -1,
      "Projectile": null,
      "DefenderCharacter": -1,
      "DefenderCount": -1,
      "DestructionXP": -1,
      "ExportNameTriggered": null
    },
    {
      "id": 503,
      "build_level": 3,
      "building_TypeID": 5,
      "name": "-1",
      "exportName": "spell_factory_lvl3",
      "BuildTimeD": 4,
      "BuildTimeH": 0,
      "BuildTimeM": 0,
      "BuildCost": 800000,
      "TownHallLevel": 7,
      "MaxStoredGold": -1,
      "MaxStoredElixir": -1,
      "HousingSpace": 3,
      "ResourcePerHour": -1,
      "ResourceMax": -1,
      "UnitProduction": 3,
      "Hitpoints": 600,
      "RegenTime": 32,
      "Damage": -1,
      "Projectile": null,
      "DefenderCharacter": -1,
      "DefenderCount": -1,
      "DestructionXP": -1,
      "ExportNameTriggered": null
    },
    {
      "id": 50001,
      "build_level": 1,
      "building_TypeID": 500,
      "name": "Worker Building",
      "exportName": "worker_building_upg",
      "BuildTimeD": 0,
      "BuildTimeH": 0,
      "BuildTimeM": 0,
      "BuildCost": 10000,
      "TownHallLevel": 0,
      "MaxStoredGold": -1,
      "MaxStoredElixir": -1,
      "HousingSpace": -1,
      "ResourcePerHour": -1,
      "ResourceMax": -1,
      "UnitProduction": -1,
      "Hitpoints": 400,
      "RegenTime": 30,
      "Damage": -1,
      "Projectile": null,
      "DefenderCharacter": -1,
      "DefenderCount": -1,
      "DestructionXP": -1,
      "ExportNameTriggered": null
    }
  ]
}