{"listType" :
  [
    {
      "id": 1,
      "name": "Trại lính",
      "building_TypeID": 0,
      "buildRes": 1,
      "width": 5,
      "height": 5,
      "exportNameBuildAnim": "fireplace_upg",
      "bunker": 0,
      "ProducesResource": -1,
      "UpgradesUnits": 0,
      "AttackRange": -1,
      "AttackSpeed": -1,
      "BuildingW": 2,
      "BuildingH": 2,
      "AirTargets": -1,
      "GroundTargets": -1,
      "MinAttackRange": -1,
      "DamageRadius": -1,
      "Locked": 0,
      "Hidden": 0,
      "TriggerRadius": -1
    },
    {
      "id": 101,
      "name": "Nhà chính",
      "building_TypeID": 1,
      "buildRes": 0,
      "width": 4,
      "height": 4,
      "exportNameBuildAnim": "town_hall_upg",
      "bunker": 0,
      "ProducesResource": -1,
      "UpgradesUnits": 0,
      "AttackRange": -1,
      "AttackSpeed": -1,
      "BuildingW": 3,
      "BuildingH": 3,
      "AirTargets": -1,
      "GroundTargets": -1,
      "MinAttackRange": -1,
      "DamageRadius": -1,
      "Locked": 0,
      "Hidden": 0,
      "TriggerRadius": -1
    },
    {
      "id": 200,
      "name": "Mỏ dầu",
      "building_TypeID": 2,
      "buildRes": 0,
      "width": 3,
      "height": 3,
      "exportNameBuildAnim": "elixir_pump_upg",
      "bunker": 0,
      "ProducesResource": 1,
      "UpgradesUnits": 0,
      "AttackRange": -1,
      "AttackSpeed": -1,
      "BuildingW": 2,
      "BuildingH": 2,
      "AirTargets": -1,
      "GroundTargets": -1,
      "MinAttackRange": -1,
      "DamageRadius": -1,
      "Locked": 0,
      "Hidden": 0,
      "TriggerRadius": -1
    },
    {
      "id": 201,
      "name": "Kho dầu",
      "building_TypeID": 2,
      "buildRes": 0,
      "width": 3,
      "height": 3,
      "exportNameBuildAnim": "elixir_storage_upg",
      "bunker": 0,
      "ProducesResource": -1,
      "UpgradesUnits": 0,
      "AttackRange": -1,
      "AttackSpeed": -1,
      "BuildingW": 2,
      "BuildingH": 2,
      "AirTargets": -1,
      "GroundTargets": -1,
      "MinAttackRange": -1,
      "DamageRadius": -1,
      "Locked": 0,
      "Hidden": 0,
      "TriggerRadius": -1
    },
    {
      "id": 202,
      "name": "Mỏ vàng",
      "building_TypeID": 2,
      "buildRes": 1,
      "width": 3,
      "height": 3,
      "exportNameBuildAnim": "goldmine_upg",
      "bunker": 0,
      "ProducesResource": 0,
      "UpgradesUnits": 0,
      "AttackRange": -1,
      "AttackSpeed": -1,
      "BuildingW": 2,
      "BuildingH": 2,
      "AirTargets": -1,
      "GroundTargets": -1,
      "MinAttackRange": -1,
      "DamageRadius": -1,
      "Locked": 0,
      "Hidden": 0,
      "TriggerRadius": -1
    },
    {
      "id": 203,
      "name": "Gold Storage",
      "building_TypeID": 2,
      "buildRes": 1,
      "width": 3,
      "height": 3,
      "exportNameBuildAnim": "gold_storage_upg",
      "bunker": 0,
      "ProducesResource": -1,
      "UpgradesUnits": 0,
      "AttackRange": -1,
      "AttackSpeed": -1,
      "BuildingW": 2,
      "BuildingH": 2,
      "AirTargets": -1,
      "GroundTargets": -1,
      "MinAttackRange": -1,
      "DamageRadius": -1,
      "Locked": 0,
      "Hidden": 0,
      "TriggerRadius": -1
    },
    {
      "id": 2,
      "name": "Nhà lính",
      "building_TypeID": 0,
      "buildRes": 1,
      "width": 3,
      "height": 3,
      "exportNameBuildAnim": "barracks_upg",
      "bunker": 0,
      "ProducesResource": -1,
      "UpgradesUnits": 0,
      "AttackRange": -1,
      "AttackSpeed": -1,
      "BuildingW": 2,
      "BuildingH": 2,
      "AirTargets": -1,
      "GroundTargets": -1,
      "MinAttackRange": -1,
      "DamageRadius": -1,
      "Locked": 0,
      "Hidden": 0,
      "TriggerRadius": -1
    },
    {
      "id": 3,
      "name": "Nhà nghiên cứu",
      "building_TypeID": 0,
      "buildRes": 1,
      "width": 4,
      "height": 4,
      "exportNameBuildAnim": "laboratory_upg",
      "bunker": 0,
      "ProducesResource": -1,
      "UpgradesUnits": 1,
      "AttackRange": -1,
      "AttackSpeed": -1,
      "BuildingW": 3,
      "BuildingH": 3,
      "AirTargets": -1,
      "GroundTargets": -1,
      "MinAttackRange": -1,
      "DamageRadius": -1,
      "Locked": 0,
      "Hidden": 0,
      "TriggerRadius": -1
    },
    {
      "id": 300,
      "name": "Cannon",
      "building_TypeID": 3,
      "buildRes": 0,
      "width": 3,
      "height": 3,
      "exportNameBuildAnim": "basic_turret_upg",
      "bunker": 0,
      "ProducesResource": -1,
      "UpgradesUnits": 0,
      "AttackRange": 900,
      "AttackSpeed": 800,
      "BuildingW": 2,
      "BuildingH": 2,
      "AirTargets": 0,
      "GroundTargets": 1,
      "MinAttackRange": -1,
      "DamageRadius": -1,
      "Locked": 0,
      "Hidden": 0,
      "TriggerRadius": -1
    },
    {
      "id": 301,
      "name": "Archer Tower",
      "building_TypeID": 3,
      "buildRes": 0,
      "width": 3,
      "height": 3,
      "exportNameBuildAnim": "tower_turret_upg",
      "bunker": 0,
      "ProducesResource": -1,
      "UpgradesUnits": 0,
      "AttackRange": 1000,
      "AttackSpeed": 1000,
      "BuildingW": 2,
      "BuildingH": 2,
      "AirTargets": 1,
      "GroundTargets": 1,
      "MinAttackRange": -1,
      "DamageRadius": -1,
      "Locked": 0,
      "Hidden": 0,
      "TriggerRadius": -1
    },
    {
      "id": 400,
      "name": "Wall",
      "building_TypeID": 4,
      "buildRes": 0,
      "width": 1,
      "height": 1,
      "exportNameBuildAnim": "dummy_particle",
      "bunker": 0,
      "ProducesResource": -1,
      "UpgradesUnits": 0,
      "AttackRange": -1,
      "AttackSpeed": -1,
      "BuildingW": 1,
      "BuildingH": 1,
      "AirTargets": -1,
      "GroundTargets": -1,
      "MinAttackRange": -1,
      "DamageRadius": -1,
      "Locked": 0,
      "Hidden": 0,
      "TriggerRadius": -1
    },
    {
      "id": 302,
      "name": "Wizard Tower",
      "building_TypeID": 3,
      "buildRes": 0,
      "width": 3,
      "height": 3,
      "exportNameBuildAnim": "wizard_tower_upg",
      "bunker": 0,
      "ProducesResource": -1,
      "UpgradesUnits": 0,
      "AttackRange": 700,
      "AttackSpeed": 1300,
      "BuildingW": 2,
      "BuildingH": 2,
      "AirTargets": 1,
      "GroundTargets": 1,
      "MinAttackRange": -1,
      "DamageRadius": 100,
      "Locked": 0,
      "Hidden": 0,
      "TriggerRadius": -1
    },
    {
      "id": 303,
      "name": "Air Defense",
      "building_TypeID": 3,
      "buildRes": 0,
      "width": 3,
      "height": 3,
      "exportNameBuildAnim": "fireworks_tower_upg",
      "bunker": 0,
      "ProducesResource": -1,
      "UpgradesUnits": 0,
      "AttackRange": 1000,
      "AttackSpeed": 1000,
      "BuildingW": 2,
      "BuildingH": 2,
      "AirTargets": 1,
      "GroundTargets": 0,
      "MinAttackRange": -1,
      "DamageRadius": -1,
      "Locked": 0,
      "Hidden": 0,
      "TriggerRadius": -1
    },
    {
      "id": 304,
      "name": "Mortar",
      "building_TypeID": 3,
      "buildRes": 0,
      "width": 3,
      "height": 3,
      "exportNameBuildAnim": "mortar_upg",
      "bunker": 0,
      "ProducesResource": -1,
      "UpgradesUnits": 0,
      "AttackRange": 1000,
      "AttackSpeed": 5000,
      "BuildingW": 2,
      "BuildingH": 2,
      "AirTargets": 0,
      "GroundTargets": 1,
      "MinAttackRange": 400,
      "DamageRadius": 150,
      "Locked": 0,
      "Hidden": 0,
      "TriggerRadius": -1
    },
    {
      "id": 4,
      "name": "Alliance Castle",
      "building_TypeID": 0,
      "buildRes": 0,
      "width": 3,
      "height": 3,
      "exportNameBuildAnim": "alliance_castle_upg",
      "bunker": 1,
      "ProducesResource": -1,
      "UpgradesUnits": 0,
      "AttackRange": -1,
      "AttackSpeed": -1,
      "BuildingW": 2,
      "BuildingH": 2,
      "AirTargets": -1,
      "GroundTargets": -1,
      "MinAttackRange": -1,
      "DamageRadius": -1,
      "Locked": 1,
      "Hidden": 0,
      "TriggerRadius": -1
    },
    {
      "id": 500,
      "name": "Worker Building",
      "building_TypeID": 5,
      "buildRes": 2,
      "width": 2,
      "height": 2,
      "exportNameBuildAnim": "worker_building_upg",
      "bunker": 0,
      "ProducesResource": -1,
      "UpgradesUnits": 0,
      "AttackRange": -1,
      "AttackSpeed": -1,
      "BuildingW": 1,
      "BuildingH": 1,
      "AirTargets": -1,
      "GroundTargets": -1,
      "MinAttackRange": -1,
      "DamageRadius": -1,
      "Locked": 0,
      "Hidden": 0,
      "TriggerRadius": -1
    },
    {
      "id": 600,
      "name": "Communications mast",
      "building_TypeID": 6,
      "buildRes": 0,
      "width": 2,
      "height": 2,
      "exportNameBuildAnim": "comm_mast_upg",
      "bunker": 0,
      "ProducesResource": -1,
      "UpgradesUnits": 0,
      "AttackRange": -1,
      "AttackSpeed": -1,
      "BuildingW": 1,
      "BuildingH": 1,
      "AirTargets": -1,
      "GroundTargets": -1,
      "MinAttackRange": -1,
      "DamageRadius": -1,
      "Locked": 0,
      "Hidden": 0,
      "TriggerRadius": -1
    },
    {
      "id": 601,
      "name": "Goblin main building",
      "building_TypeID": 6,
      "buildRes": 0,
      "width": 4,
      "height": 4,
      "exportNameBuildAnim": "generic_upgrade_state3",
      "bunker": 0,
      "ProducesResource": -1,
      "UpgradesUnits": 0,
      "AttackRange": -1,
      "AttackSpeed": -1,
      "BuildingW": 3,
      "BuildingH": 3,
      "AirTargets": -1,
      "GroundTargets": -1,
      "MinAttackRange": -1,
      "DamageRadius": -1,
      "Locked": 0,
      "Hidden": 0,
      "TriggerRadius": -1
    },
    {
      "id": 602,
      "name": "Goblin hut",
      "building_TypeID": 6,
      "buildRes": 1,
      "width": 2,
      "height": 2,
      "exportNameBuildAnim": "generic_upgrade_state2",
      "bunker": 0,
      "ProducesResource": -1,
      "UpgradesUnits": 0,
      "AttackRange": -1,
      "AttackSpeed": -1,
      "BuildingW": 2,
      "BuildingH": 2,
      "AirTargets": -1,
      "GroundTargets": -1,
      "MinAttackRange": -1,
      "DamageRadius": -1,
      "Locked": 0,
      "Hidden": 0,
      "TriggerRadius": -1
    },
    {
      "id": 305,
      "name": "Tesla Tower",
      "building_TypeID": 3,
      "buildRes": 0,
      "width": 2,
      "height": 2,
      "exportNameBuildAnim": "teslatower_upg",
      "bunker": 0,
      "ProducesResource": -1,
      "UpgradesUnits": 0,
      "AttackRange": 700,
      "AttackSpeed": 600,
      "BuildingW": 1,
      "BuildingH": 1,
      "AirTargets": 1,
      "GroundTargets": 1,
      "MinAttackRange": -1,
      "DamageRadius": -1,
      "Locked": 0,
      "Hidden": 1,
      "TriggerRadius": 500
    }
  ]
}